
Integration time [ms]:   0.053
Averaging Nr. [scans]: 100
Smoothing Nr. [pixels]: 0
Data measured with spectrometer [name]: 1403004U1
Wave   ;Sample   ;Dark     ;Reference;Scope
[nm]   ;[counts] ;[counts] ;[counts] 

333.246;   88.543;   35.944;  118.278
333.846;   74.363;   38.944;  103.278
334.446;   16.123;   33.944;   96.278
335.047;   64.453;    0.944;   86.278
335.647;   38.303;   48.944;  118.278
336.247;   53.413;   12.944;  143.278
336.847;   45.823;   18.944;  141.278
337.446;   63.303;   29.944;  110.278
338.046;   40.903;   21.944;  125.278
338.646;   23.253;   31.944;  121.278
339.246;   31.723;   33.944;  115.278
339.846;   28.323;   38.944;  130.278
340.446;   31.163;   11.944;   65.278
341.046;   47.373;   37.944;  110.278
341.645;   26.353;    8.944;   98.278
342.245;   20.593;   45.944;  117.278
342.845;   36.363;   14.944;  121.278
343.444;   51.523;   22.944;  118.278
344.044;   22.753;   19.944;  121.278
344.644;   24.133;   17.944;   63.278
345.243;   18.233;   -4.056;   94.278
345.843;   29.593;   28.944;  104.278
346.442;   38.543;   22.944;  121.278
347.042;   14.613;   20.944;   76.278
347.641;   19.373;   31.944;   95.278
348.241;   28.363;   14.944;   71.278
348.840;   37.473;   39.944;  134.278
349.439;   22.763;   24.944;  116.278
350.039;   22.663;   19.944;  112.278
350.638;   53.773;   20.944;   99.278
351.237;   35.023;   16.944;   89.278
351.837;   34.083;   16.944;   79.278
352.436;   53.733;   21.944;  110.278
353.035;   63.133;   50.944;  108.278
353.634;   36.103;   37.944;  107.278
354.233;   24.083;   29.944;   86.278
354.833;   50.463;   31.944;   91.278
355.432;   31.663;    7.944;   43.278
356.031;   26.983;   26.944;   92.278
356.630;  122.663;   19.944;   91.278
357.229;   22.633;   23.944;   99.278
357.828;   18.583;   30.944;   93.278
358.427;   69.763;   24.944;   95.278
359.026;   21.553;    6.944;   46.278
359.624;   26.083;   14.944;   89.278
360.223;   18.953;   14.944;  109.278
360.822;   26.873;   22.944;  104.278
361.421;   20.033;    5.944;   73.278
362.020;   56.933;   14.944;   81.278
362.619;   29.143;   18.944;  104.278
363.217;   11.413;   28.944;   84.278
363.816;   32.273;   22.944;   90.278
364.415;   43.473;    5.944;   90.278
365.013;   61.313;   30.944;   80.278
365.612;   64.673;   20.944;   90.278
366.210;   72.463;   27.944;   74.278
366.809;   62.273;   28.944;  107.278
367.408;   19.423;   17.944;   79.278
368.006;   25.863;   36.944;   92.278
368.605;   26.573;   19.944;   79.278
369.203;   49.033;   22.944;   81.278
369.801;   16.973;   45.944;   63.278
370.400;    9.743;   21.944;  103.278
370.998;  107.673;   13.944;   74.278
371.596;   29.193;   30.944;   91.278
372.195;   81.073;    0.944;   90.278
372.793;   22.833;   21.944;   83.278
373.391;   21.443;   27.944;   65.278
373.989;   29.333;    5.944;   89.278
374.588;   30.563;   18.944;   75.278
375.186;   47.833;   29.944;   71.278
375.784;   56.343;    9.944;   71.278
376.382;   48.553;   28.944;  122.278
376.980;   37.073;   25.944;   40.278
377.578;   40.263;   10.944;   69.278
378.176;   35.833;    7.944;   79.278
378.774;   32.333;    7.944;   75.278
379.372;   25.483;    7.944;   55.278
379.970;   41.573;   27.944;   80.278
380.568;   54.463;   28.944;   38.278
381.166;   53.533;   30.944;   81.278
381.764;   13.553;   30.944;   43.278
382.361;   13.923;   -5.056;   81.278
382.959;   22.143;    0.944;   60.278
383.557;   51.723;   23.944;   63.278
384.155;   53.073;   14.944;   52.278
384.752;   59.473;   10.944;   99.278
385.350;   17.643;   20.944;   62.278
385.948;  105.753;   13.944;   70.278
386.545;   44.243;   16.944;   41.278
387.143;   52.733;    4.944;   64.278
387.740;   24.183;   22.944;   43.278
388.338;   24.383;   19.944;   73.278
388.935;   36.443;   21.944;   61.278
389.533;   14.763;    3.944;   98.278
390.130;  136.773;   25.944;   88.278
390.728;   36.473;   14.944;   69.278
391.325;   11.533;   -1.056;   22.278
391.922;    8.953;   -8.056;   32.278
392.520;   83.673;   24.944;   73.278
393.117;   16.333;    5.944;   52.278
393.714;   30.403;    6.944;   46.278
394.311;   26.483;   12.944;   45.278
394.909;   54.013;   16.944;   60.278
395.506;   28.933;   19.944;   96.278
396.103;   37.083;    7.944;   62.278
396.700;   29.023;   24.944;   71.278
397.297;   47.863;   33.944;   66.278
397.894;   68.063;   15.944;   56.278
398.491;   42.873;   18.944;   62.278
399.088;  153.273;    2.944;  101.278
399.685;   28.603;  -28.056;   57.278
400.282;   42.783;   17.944;   85.278
400.879;   75.923;   10.944;   78.278
401.476;   83.913;   14.944;   63.278
402.073;   90.543;   24.944;   66.278
402.669;   53.633;   28.944;   66.278
403.266;   23.443;   -0.056;   46.278
403.863;   48.083;   14.944;   59.278
404.460;   17.143;   12.944;   67.278
405.056;   60.173;   23.944;   59.278
405.653;   23.753;   23.944;   47.278
406.250;   16.053;   38.944;   85.278
406.846;   44.003;   -7.056;   93.278
407.443;  156.123;   49.944;   75.278
408.039;   86.993;   12.944;   63.278
408.636;  100.303;   44.944;   89.278
409.232;   51.853;    2.944;   84.278
409.829;   25.723;   -6.056;   80.278
410.425;   47.283;   11.944;   45.278
411.022;   30.113;   25.944;   69.278
411.618;   13.363;   35.944;   70.278
412.214;   15.723;   34.944;   72.278
412.811;   24.653;   -6.056;   30.278
413.407;   13.423;   -5.056;   68.278
414.003;   41.143;   17.944;   68.278
414.599;   52.863;   28.944;   85.278
415.195;   28.573;   28.944;   64.278
415.792;   47.843;   11.944;   79.278
416.388;   58.243;   44.944;   66.278
416.984;   41.913;   -8.056;   90.278
417.580;   70.143;   21.944;   90.278
418.176;   25.563;    9.944;   70.278
418.772;   28.243;   40.944;   71.278
419.368;   22.463;   23.944;   61.278
419.964;   28.683;   34.944;   49.278
420.560;   36.443;   15.944;   79.278
421.156;   37.393;   23.944;   53.278
421.751;   67.973;   13.944;   83.278
422.347;   23.683;    6.944;   84.278
422.943;   36.543;   20.944;   72.278
423.539;   48.533;    2.944;   51.278
424.135;   19.953;   18.944;   74.278
424.730;   31.173;   27.944;   53.278
425.326;   19.273;   12.944;   78.278
425.922;   55.773;    5.944;   60.278
426.517;   78.673;   40.944;   89.278
427.113;   83.973;   14.944;   43.278
427.708;   73.883;   28.944;   72.278
428.304;   89.323;   35.944;   67.278
428.899;   51.313;   43.944;   92.278
429.495;   23.213;   17.944;   56.278
430.090;   96.493;   -1.056;   73.278
430.686;   20.653;   -4.056;   38.278
431.281;   87.593;   16.944;   79.278
431.876;   64.503;   42.944;   86.278
432.472;   39.573;    7.944;   48.278
433.067;   52.113;   18.944;   60.278
433.662;   31.153;   18.944;   63.278
434.257;  176.563;   -6.056;   67.278
434.853;   59.783;   26.944;   97.278
435.448;    7.313;   16.944;   32.278
436.043;   35.303;   18.944;   70.278
436.638;   73.613;   30.944;   79.278
437.233;   49.463;   21.944;   73.278
437.828;   32.383;   -1.056;   90.278
438.423;   35.813;   51.944;   46.278
439.018;   40.433;   18.944;   73.278
439.613;   42.753;   42.944;   83.278
440.208;   77.953;   -0.056;   62.278
440.803;   55.623;   20.944;   43.278
441.398;   42.103;   -1.056;   93.278
441.992;   19.253;   48.944;   84.278
442.587;   56.083;   36.944;   79.278
443.182;  110.443;   32.944;   77.278
443.777;   27.113;    9.944;   57.278
444.371;   59.253;   -3.056;   52.278
444.966;   39.083;   13.944;   96.278
445.561;   87.173;    5.944;   65.278
446.155;   64.933;   31.944;   68.278
446.750;   35.863;  -10.056;   58.278
447.344;   64.323;   15.944;   68.278
447.939;    8.723;   -6.056;   30.278
448.533;   24.273;   19.944;   76.278
449.128;   53.393;    6.944;   62.278
449.722;   65.543;   45.944;   85.278
450.317;   26.363;   16.944;   62.278
450.911;   16.273;   21.944;   19.278
451.505;   80.473;    0.944;   82.278
452.099;  118.323;   30.944;   67.278
452.694;   32.003;   17.944;   78.278
453.288;   30.313;    9.944;   67.278
453.882;   31.763;   31.944;   73.278
454.476;   53.603;    9.944;   65.278
455.070;  120.673;   30.944;   93.278
455.665;   19.353;    1.944;   71.278
456.259;   45.053;   31.944;   71.278
456.853;   46.953;   28.944;   74.278
457.447;   73.383;   33.944;   80.278
458.041;   59.613;    4.944;   74.278
458.635;  115.273;   25.944;   95.278
459.229;   94.053;   30.944;   83.278
459.822;   28.273;   21.944;   97.278
460.416;   93.223;   11.944;   82.278
461.010;   56.803;   35.944;   81.278
461.604;   37.263;   -4.056;   61.278
462.198;   36.843;   36.944;   57.278
462.791;   68.173;  -10.056;   72.278
463.385;   38.503;    2.944;   85.278
463.979;   57.893;   18.944;   94.278
464.572;   49.423;   16.944;   60.278
465.166;   12.833;   11.944;   62.278
465.760;   46.823;   25.944;   70.278
466.353;   50.533;   20.944;   78.278
466.947;   95.473;   24.944;   85.278
467.540;   30.273;    5.944;   84.278
468.134;   55.813;   26.944;   33.278
468.727;   48.023;   15.944;   97.278
469.320;   66.623;   31.944;   77.278
469.914;   32.033;    3.944;   72.278
470.507;   22.163;   13.944;   56.278
471.100;   92.233;   10.944;   58.278
471.694;   44.433;   12.944;   66.278
472.287;   33.143;    2.944;  100.278
472.880;   68.893;   20.944;   68.278
473.473;   90.943;   27.944;   82.278
474.066;   71.623;    8.944;   85.278
474.659;   48.503;    3.944;   55.278
475.252;  123.273;   -1.056;   76.278
475.845;   45.863;   19.944;   78.278
476.438;   17.433;   20.944;   71.278
477.031;   98.863;   11.944;  104.278
477.624;   38.943;   40.944;   83.278
478.217;  100.863;   20.944;   60.278
478.810;   91.283;   26.944;   83.278
479.403;   29.283;   -2.056;   73.278
479.996;   57.073;   10.944;   80.278
480.589;  161.003;   29.944;   81.278
481.181;   46.813;   27.944;   80.278
481.774;   57.463;   22.944;   55.278
482.367;   86.543;   15.944;   98.278
482.959;   74.733;   -3.056;   74.278
483.552;   53.673;   27.944;   82.278
484.145;   30.363;   12.944;   68.278
484.737;  107.673;   30.944;   85.278
485.330;   26.713;    2.944;   59.278
485.922;   30.933;   15.944;   93.278
486.515;   43.023;   14.944;  103.278
487.107;   85.773;    7.944;   62.278
487.699;   55.883;   26.944;   68.278
488.292;   43.243;   20.944;   65.278
488.884;   40.873;   30.944;   84.278
489.476;   34.623;   18.944;   75.278
490.069;   73.083;   24.944;   95.278
490.661;   32.693;  -13.056;   74.278
491.253;   43.643;   33.944;  108.278
491.845;   80.273;   20.944;   56.278
492.437;   34.833;   24.944;   69.278
493.030;   36.543;   27.944;   95.278
493.622;   34.633;   30.944;   73.278
494.214;   36.723;  -20.056;   94.278
494.806;   91.483;   41.944;   88.278
495.398;   27.773;   23.944;   68.278
495.990;   47.873;   10.944;   85.278
496.582;   64.083;    8.944;   66.278
497.173;  117.293;   10.944;   97.278
497.765;   71.853;  -16.056;   92.278
498.357;   24.113;   40.944;   98.278
498.949;   28.023;   18.944;   70.278
499.541;   58.403;   13.944;   81.278
500.132;   33.853;   12.944;   74.278
500.724;   52.863;   24.944;   78.278
501.316;   50.993;   11.944;   85.278
501.907;  134.133;   52.944;   57.278
502.499;   80.753;   21.944;   92.278
503.090;   40.653;   17.944;   69.278
503.682;   28.193;   13.944;   85.278
504.274;   38.213;   38.944;   68.278
504.865;  108.083;    1.944;   72.278
505.456;  137.773;   35.944;   24.278
506.048;   26.613;   11.944;   72.278
506.639;   35.813;   23.944;   94.278
507.230;   31.163;   18.944;  108.278
507.822;   90.253;   11.944;   84.278
508.413;   53.913;   24.944;   62.278
509.004;  129.063;   32.944;   72.278
509.595;   32.393;    0.944;   85.278
510.187;   25.133;   24.944;   94.278
510.778;   39.813;   16.944;   86.278
511.369;   21.423;  -10.056;   71.278
511.960;   93.323;   13.944;   48.278
512.551;   19.723;   11.944;   70.278
513.142;   29.393;   21.944;   75.278
513.733;   31.153;    3.944;   59.278
514.324;   51.303;   23.944;   63.278
514.915;  107.853;    5.944;   72.278
515.506;   37.143;   40.944;   41.278
516.097;  176.073;   19.944;   75.278
516.687;   84.293;   20.944;   91.278
517.278;   36.193;   14.944;   91.278
517.869;   95.943;   25.944;   82.278
518.460;   46.213;   11.944;   70.278
519.050;   63.813;   36.944;   71.278
519.641;   29.863;    3.944;   61.278
520.231;   27.563;   24.944;   55.278
520.822;   61.813;   25.944;   59.278
521.413;   29.373;   10.944;   75.278
522.003;   60.073;   11.944;   79.278
522.594;  110.173;   22.944;   66.278
523.184;   24.253;   17.944;   71.278
523.774;   51.103;    5.944;   77.278
524.365;   60.683;   24.944;   85.278
524.955;   71.163;   20.944;   73.278
525.546;   31.923;   14.944;   79.278
526.136;   14.123;   17.944;   39.278
526.726;   94.123;   35.944;   84.278
527.316;   82.513;   21.944;   62.278
527.906;   25.773;  -18.056;   80.278
528.497;   21.023;   10.944;   97.278
529.087;   50.023;    5.944;   79.278
529.677;   13.493;    8.944;   60.278
530.267;   30.043;   -0.056;   77.278
530.857;  162.563;   -0.056;   62.278
531.447;   33.413;   26.944;   86.278
532.037;   27.753;   11.944;   79.278
532.627;   31.773;   11.944;   76.278
533.217;   36.083;    6.944;   46.278
533.806;   34.393;   20.944;   39.278
534.396;   88.763;   28.944;   77.278
534.986;   22.163;    6.944;   95.278
535.576;   29.853;   -1.056;   74.278
536.165;   74.773;   30.944;   51.278
536.755;   24.123;   23.944;   69.278
537.345;  135.983;   31.944;   80.278
537.934;   38.583;   16.944;   57.278
538.524;   75.633;   14.944;   61.278
539.114;   29.593;  -15.056;   77.278
539.703;   29.653;   10.944;   50.278
540.293;   31.103;   18.944;  106.278
540.882;   21.003;   25.944;   60.278
541.471;   58.333;   16.944;   74.278
542.061;   26.203;   25.944;   82.278
542.650;   66.373;   28.944;   79.278
543.239;  112.853;  -11.056;   67.278
543.829;   20.633;   43.944;   98.278
544.418;   42.933;   11.944;   89.278
545.007;   55.063;   13.944;   77.278
545.596;   28.483;   17.944;   65.278
546.185;  166.703;   45.944;   75.278
546.775;   18.313;  -17.056;   51.278
547.364;   33.883;   10.944;   82.278
547.953;   60.873;   29.944;   90.278
548.542;   46.913;    3.944;   82.278
549.131;   24.023;   11.944;   89.278
549.720;   40.293;    8.944;   69.278
550.309;   19.663;   12.944;   53.278
550.897;   43.123;   15.944;   85.278
551.486;   26.463;   24.944;   79.278
552.075;   24.283;   18.944;   62.278
552.664;   28.443;   27.944;   84.278
553.253;   99.443;    9.944;   36.278
553.841;   39.043;   20.944;   90.278
554.430;   54.273;   19.944;   91.278
555.019;   39.793;   22.944;   67.278
555.607;   55.183;   12.944;   92.278
556.196;   19.913;   25.944;   86.278
556.784;   28.383;   23.944;   51.278
557.373;  141.473;    6.944;   97.278
557.961;   30.983;    8.944;   65.278
558.550;   29.483;   15.944;   64.278
559.138;   16.303;    7.944;   73.278
559.726;   25.163;  -17.056;   77.278
560.315;   84.193;   22.944;   80.278
560.903;   87.963;   13.944;   70.278
561.491;   67.233;    4.944;   62.278
562.080;   21.533;  -11.056;   60.278
562.668;   40.853;   52.944;   76.278
563.256;   24.303;   22.944;   60.278
563.844;   20.113;    1.944;   75.278
564.432;   15.723;    1.944;   69.278
565.020;   59.113;   19.944;   68.278
565.608;   33.353;    1.944;   66.278
566.196;   32.953;   32.944;   72.278
566.784;   13.053;   -0.056;   59.278
567.372;   31.443;   13.944;   64.278
567.960;    9.123;   -9.056;   36.278
568.548;  103.233;   17.944;   69.278
569.136;   24.233;   15.944;   70.278
569.723;   59.163;   40.944;   79.278
570.311;   26.303;   31.944;   46.278
570.899;   54.503;   12.944;   80.278
571.487;   56.673;   17.944;   76.278
572.074;   27.923;   36.944;   83.278
572.662;   62.313;   -0.056;   55.278
573.249;   39.343;   28.944;   91.278
573.837;   57.813;   31.944;   52.278
574.424;   40.663;   39.944;  104.278
575.012;   37.213;   15.944;   71.278
575.599;   59.723;    4.944;   73.278
576.187;   19.543;   11.944;   69.278
576.774;   15.193;   36.944;   76.278
577.361;   46.963;   28.944;   50.278
577.949;   72.023;   20.944;   75.278
578.536;   26.353;   25.944;   74.278
579.123;   31.723;   32.944;   74.278
579.710;   29.873;    9.944;   92.278
580.298;   19.323;   17.944;   89.278
580.885;   31.743;   15.944;   43.278
581.472;   65.013;   19.944;   97.278
582.059;   69.623;   23.944;   73.278
582.646;  132.113;   31.944;   72.278
583.233;   57.763;   11.944;   64.278
583.820;   64.503;   18.944;   89.278
584.407;  202.783;   24.944;   60.278
584.994;   89.613;   26.944;   74.278
585.580;   49.203;   10.944;   88.278
586.167;   97.623;   20.944;   64.278
586.754;   50.063;   42.944;   80.278
587.341;   95.063;   13.944;   84.278
587.927;   49.023;   50.944;   55.278
588.514;   93.103;   38.944;   42.278
589.101;  218.753;   17.944;   66.278
589.687;   53.273;   30.944;   88.278
590.274;   66.213;   -2.056;   68.278
590.861;   85.393;   30.944;   57.278
591.447;  123.473;   24.944;   81.278
592.033;  119.493;   13.944;   67.278
592.620;   87.043;   20.944;   48.278
593.206;  150.483;   33.944;   88.278
593.793;  140.293;   -5.056;   70.278
594.379;  208.753;   35.944;   70.278
594.965;  179.593;    7.944;   95.278
595.552;   83.563;    5.944;   76.278
596.138;  252.383;   -2.056;   74.278
596.724;  122.233;    0.944;  107.278
597.310;  111.423;   -9.056;  107.278
597.896;   69.823;   20.944;  121.278
598.482;  139.053;   25.944;   94.278
599.068;  237.833;    5.944;  103.278
599.654;  154.823;   -2.056;  133.278
600.240;  164.733;   22.944;  143.278
600.826;  227.573;   -0.056;  152.278
601.412;  210.913;   17.944;  149.278
601.998;  183.403;   -6.056;  133.278
602.584;  165.783;  -10.056;  168.278
603.170;  255.583;   10.944;  177.278
603.755;  288.133;   14.944;  208.278
604.341;  324.273;    3.944;  202.278
604.927;  231.593;    1.944;  224.278
605.512;  208.963;    7.944;  250.278
606.098;  325.523;   20.944;  282.278
606.684;  254.753;   10.944;  270.278
607.269;  299.043;   22.944;  341.278
607.855;  238.743;   27.944;  344.278
608.440;  304.623;   26.944;  381.278
609.026;  225.283;  -16.056;  363.278
609.611;  630.413;   22.944;  455.278
610.196;  364.813;   26.944;  468.278
610.782;  472.913;   -7.056;  588.278
611.367;  781.533;   20.944;  658.278
611.952;  526.783;   30.944;  723.278
612.538;  438.393;    8.944;  739.278
613.123;  490.773;    6.944;  710.278
613.708;  432.813;   19.944;  680.278
614.293;  833.603;   -2.056;  783.278
614.878;  518.083;   38.944;  753.278
615.463;  618.503;   27.944;  835.278
616.048;  684.183;    2.944;  855.278
616.633;  769.463;   18.944;  910.278
617.218;  693.363;    3.944;  861.278
617.803;  886.823;   -1.056;  934.278
618.388;  805.883;   24.944;  997.278
618.973;  875.203;  -17.056; 1047.278
619.557;  724.633;   18.944; 1053.278
620.142;  871.333;   28.944; 1136.278
620.727; 1119.473;   22.944; 1177.278
621.312; 1062.543;   13.944; 1264.278
621.896; 1276.053;   32.944; 1389.278
622.481; 1091.243;    4.944; 1464.278
623.066; 1224.363;    5.944; 1518.278
623.650; 1207.623;   22.944; 1632.278
624.235; 1413.313;   -0.056; 1670.278
624.819; 1599.443;   13.944; 1824.278
625.404; 1637.593;   17.944; 1864.278
625.988; 1830.473;   35.944; 2023.278
626.572; 1746.243;   16.944; 2040.278
627.157; 2102.723;   28.944; 2107.278
627.741; 1882.043;   13.944; 2268.278
628.325; 2430.643;   41.944; 2364.278
628.909; 2625.093;   14.944; 2511.278
629.494; 2412.013;   49.944; 2544.278
630.078; 2803.393;   17.944; 2665.278
630.662; 2894.073;   25.944; 2786.278
631.246; 3091.713;    3.944; 2928.278
631.830; 3651.973;   20.944; 3065.278
632.414; 3729.083;    9.944; 3100.278
632.998; 4404.443;   13.944; 3266.278
633.582; 4143.543;    9.944; 3373.278
634.166; 4510.663;   14.944; 3474.278
634.750; 4985.073;    1.944; 3630.278
635.333; 5468.043;   43.944; 3818.278
635.917; 5844.973;   13.944; 4001.278
636.501; 6490.243;   31.944; 4138.278
637.085; 6474.643;   18.944; 4169.278
637.668; 6994.133;   25.944; 4329.278
638.252; 8706.503;    6.944; 4579.278
638.836; 8718.173;   37.944; 4810.278
639.419; 8690.313;   20.944; 4871.278
640.003; 9536.503;   16.944; 5028.278
640.586;10460.543;   19.944; 5304.278
641.170;11081.533;   28.944; 5439.278
641.753;11917.163;  -12.056; 5687.278
642.337;12970.963;   21.944; 5795.278
642.920;14560.043;   17.944; 6126.278
643.503;14707.953;    6.944; 6206.278
644.087;15997.953;   31.944; 6355.278
644.670;17077.953;    8.944; 6523.278
645.253;17679.203;  -14.056; 6733.278
645.836;19530.163;   19.944; 6873.278
646.419;21515.463;   36.944; 7183.278
647.002;22979.753;   22.944; 7389.278
647.585;23779.043;   17.944; 7587.278
648.168;24845.793;  -36.056; 7868.278
648.751;27204.743;   14.944; 7980.278
649.334;29485.903;   -8.056; 8167.278
649.917;31423.913;   12.944; 8404.277
650.500;32731.293;   29.944; 8719.277
651.083;34119.173;   12.944; 8958.277
651.666;36714.083;   10.944; 9076.277
652.249;40052.693;   20.944; 9529.277
652.831;41673.193;   -4.056; 9708.277
653.414;43827.103;   19.944; 9965.277
653.997;44827.233;   45.944;10155.277
654.579;48330.153;   22.944;10472.277
655.162;48741.873;   15.944;10680.277
655.744;50571.623;   28.944;10970.277
656.327;52322.323;   24.944;11138.277
656.909;53974.883;    7.944;11555.277
657.492;54279.903;   36.944;11794.277
658.074;53823.463;   14.944;12108.277
658.657;54980.443;   37.944;12509.277
659.239;54660.483;   21.944;12823.277
659.821;54954.943;   30.944;13199.277
660.404;54696.773;   -0.056;13725.277
660.986;53481.143;   34.944;14164.277
661.568;54069.543;   17.944;14654.277
662.150;51657.713;   23.944;14843.277
662.732;50398.513;   30.944;15379.277
663.314;48783.403;   34.944;15736.277
663.896;47333.163;    2.944;16046.277
664.478;44759.283;   27.944;16199.277
665.060;42576.693;   16.944;16485.277
665.642;39374.893;   42.944;16669.277
666.224;35298.673;   20.944;16366.277
666.806;32989.873;   28.944;16621.277
667.388;30752.773;   12.944;16619.277
667.969;28581.603;   25.944;16858.277
668.551;25665.223;   20.944;17146.277
669.133;23667.743;   11.944;17189.277
669.715;21140.143;   21.944;17236.277
670.296;19715.693;   13.944;17639.277
670.878;17965.713;   11.944;17909.277
671.459;17036.693;   27.944;18161.277
672.041;15195.773;   20.944;18458.277
672.622;14277.453;   17.944;18644.277
673.204;13108.983;    7.944;18975.277
673.785;12218.113;    6.944;19212.277
674.366;11625.693;   10.944;19442.277
674.948;10496.533;   21.944;19617.277
675.529; 8656.203;    5.944;19632.277
676.110; 8411.373;   26.944;19905.277
676.692; 8810.643;   12.944;20350.277
677.273; 7753.183;   44.944;20659.277
677.854; 6837.703;   23.944;20722.277
678.435; 6275.543;   17.944;21128.277
679.016; 5818.883;   10.944;21110.277
679.597; 5259.973;   29.944;21227.277
680.178; 5257.033;   35.944;21581.277
680.759; 4722.823;    4.944;21903.277
681.340; 3675.403;   25.944;21656.277
681.921; 4129.163;   14.944;22157.277
682.502; 3371.373;   17.944;22193.277
683.082; 2644.383;   24.944;22158.277
683.663; 2532.163;   29.944;22283.277
684.244; 2742.763;   -0.056;22426.277
684.825; 2266.833;   24.944;22446.277
685.405; 2073.133;   15.944;22634.277
685.986; 1901.163;   29.944;22889.277
686.566; 1670.453;   15.944;23001.277
687.147; 1633.513;   14.944;22937.277
687.727; 1263.943;    7.944;23017.277
688.308; 1478.143;   38.944;23035.277
688.888; 1344.793;    9.944;23452.277
689.469; 1258.743;   32.944;23228.277
690.049;  910.113;    4.944;23460.277
690.629;  909.943;    4.944;23796.277
691.210;  893.413;   24.944;23777.277
691.790; 1010.733;   11.944;24070.277
692.370;  818.103;   15.944;23870.277
692.950;  675.603;   31.944;23878.277
693.530;  758.213;   11.944;23838.277
694.110; 1194.663;    1.944;24212.277
694.690;  570.783;   20.944;23991.277
695.270;  527.563;   16.944;24205.277
695.850;  558.453;   12.944;24269.277
696.430;  469.273;   18.944;24221.277
697.010;  517.083;   -0.056;24356.277
697.590;  453.383;   21.944;24175.277
698.170;  345.443;   -0.056;24286.277
698.750;  528.213;   31.944;24140.277
699.329;  381.913;    6.944;24472.277
699.909;  235.933;   20.944;24404.277
700.489;  313.373;   31.944;24491.277
701.068;  292.843;   16.944;24509.277
701.648;  633.473;   -1.056;24790.277
702.228;  217.833;   38.944;24574.277
702.807;  174.783;   11.944;24448.277
703.386;  217.303;   36.944;24295.277
703.966;  475.103;   25.944;24346.277
704.545;  317.893;   26.944;23973.277
705.125;  162.013;   22.944;23913.277
705.704;   70.223;  -21.056;23684.277
706.283;  181.013;   33.944;24091.277
706.863;   90.113;   11.944;23905.277
707.442;  223.053;   10.944;23834.277
708.021;  239.943;    6.944;23712.277
708.600;  114.623;   28.944;23454.277
709.179;  118.943;  -12.056;23585.277
709.758;  137.073;   14.944;23370.277
710.337;   86.283;   40.944;23373.277
710.916;  152.163;   16.944;23412.277
711.495;  150.803;   13.944;23067.277
712.074;   73.123;   26.944;22908.277
712.653;  143.863;  -17.056;22685.277
713.232;  168.853;   17.944;22628.277
713.810;  114.703;   23.944;22374.277
714.389;  152.933;   39.944;22425.277
714.968;   81.213;   16.944;22166.277
715.547;   90.513;   26.944;22198.277
716.125;  100.023;  -20.056;21874.277
716.704;  196.543;   18.944;21791.277
717.282;   45.823;   24.944;21274.277
717.861;   97.363;   11.944;21281.277
718.439;   39.853;   14.944;20885.277
719.018;  125.153;   22.944;20729.277
719.596;   64.813;   -3.056;20527.277
720.174;   86.183;   25.944;20505.277
720.753;  110.583;   34.944;20328.277
721.331;   44.063;   18.944;20060.277
721.909;  127.603;   24.944;19704.277
722.487;   76.103;    5.944;19441.277
723.066;   45.473;  -18.056;19032.277
723.644;  374.573;   42.944;19526.277
724.222;  127.503;   14.944;18922.277
724.800;   64.413;   27.944;18662.277
725.378;   60.433;   15.944;18618.277
725.956;   63.003;   13.944;18292.277
726.534;   47.993;   -3.056;18189.277
727.112;   60.343;   36.944;17871.277
727.690;   47.213;    8.944;17589.277
728.267;   64.843;   -3.056;17399.277
728.845;   38.603;   21.944;17120.277
729.423;   29.783;   31.944;16894.277
730.001;   30.703;    3.944;16911.277
730.578;   52.933;   29.944;16912.277
731.156;   30.323;   29.944;16721.277
731.733;   26.683;   11.944;16428.277
732.311;   68.223;   18.944;16229.277
732.888;   20.103;   10.944;15939.277
733.466;   19.723;   -6.056;15650.277
734.043;   35.323;   31.944;15448.277
734.621;   83.013;   24.944;15234.277
735.198;   31.693;   26.944;15122.277
735.775;   28.243;   22.944;14923.277
736.353;   45.403;   -4.056;14801.277
736.930;   30.633;   -1.056;14740.277
737.507;   20.593;   47.944;14249.277
738.084;   56.113;   12.944;14207.277
738.661;   20.473;   22.944;13877.277
739.238;   44.733;   22.944;13744.277
739.815;   16.323;   -9.056;13406.277
740.392;   17.883;  -11.056;13254.277
740.969;  196.403;   33.944;13441.277
741.546;   31.293;   24.944;13160.277
742.123;  130.803;   22.944;13148.277
742.700;   34.153;   18.944;12671.277
743.277;   51.463;   -2.056;12591.277
743.853;   77.173;   23.944;12340.277
744.430;   33.513;   21.944;12116.277
745.007;  101.543;   10.944;12078.277
745.584;   75.073;   22.944;11917.277
746.160;   29.933;   -0.056;11749.277
746.737;   20.353;    8.944;11642.277
747.313;   25.903;   -4.056;11462.277
747.890;   12.143;  -17.056;11279.277
748.466;   21.533;    0.944;11128.277
749.043;   27.923;   14.944;10888.277
749.619;   52.473;   17.944;10813.277
750.195;   37.143;   24.944;10629.277
750.771;   33.983;   -9.056;10441.277
751.348;   12.833;    1.944;10190.277
751.924;   19.533;   24.944;10078.277
752.500;   26.283;   23.944;10010.277
753.076;   35.143;   31.944; 9908.277
753.652;   60.883;   26.944; 9734.277
754.228;   25.183;    7.944; 9637.277
754.804;   41.373;   15.944; 9505.277
755.380;   43.543;   -1.056; 9417.277
755.956;   20.243;   20.944; 9176.277
756.532;   60.263;   20.944; 9047.277
757.108;   18.333;   10.944; 8908.277
757.684;   10.393;   22.944; 8914.277
758.260;   51.053;    4.944; 8790.277
758.835;   11.193;   31.944; 8574.277
759.411;   43.723;   27.944; 8503.277
759.987;   24.203;   24.944; 8376.277
760.562;   21.863;   24.944; 8185.278
761.138;   25.313;    9.944; 8141.278
761.713;   21.973;  -11.056; 8001.278
762.289;   44.663;   14.944; 7909.278
762.864;   74.563;    9.944; 7762.278
763.440;   20.793;   21.944; 7714.278
764.015;   37.973;   25.944; 7552.278
764.590;  158.683;   33.944; 7628.278
765.166;   51.193;  -15.056; 7484.278
765.741;   37.023;   35.944; 7297.278
766.316;   33.543;   15.944; 7255.278
766.891;   45.313;    9.944; 7080.278
767.466;   41.343;   21.944; 7094.278
768.041;   15.293;   21.944; 6856.278
768.616;   22.353;   -5.056; 6738.278
769.191;   21.963;   26.944; 6557.278
769.766;   13.063;   13.944; 6462.278
770.341;   14.583;   23.944; 6313.278
770.916;   58.783;   17.944; 6282.278
771.491;   65.993;   24.944; 6201.278
772.066;   19.923;   -7.056; 6150.278
772.641;   18.803;   37.944; 6089.278
773.215;   20.743;   18.944; 5920.278
773.790;  109.323;   27.944; 5993.278
774.365;   27.983;   -2.056; 5822.278
774.939;   25.533;    7.944; 5803.278
775.514;   81.723;   -2.056; 5664.278
776.088;   60.253;   32.944; 5572.278
776.663;   32.823;   10.944; 5462.278
777.237;   94.693;   17.944; 5489.278
777.812;   99.613;    8.944; 5381.278
778.386;   47.983;   15.944; 5238.278
778.960;   28.253;    3.944; 5188.278
779.535;   67.313;   20.944; 5187.278
780.109;   41.773;    7.944; 5044.278
780.683;   25.843;   11.944; 4924.278
781.257;   40.253;   22.944; 4941.278
781.831;   37.113;   10.944; 4800.278
782.405;   85.923;   -6.056; 4709.278
782.980;   31.643;   40.944; 4632.278
783.554;   16.133;    2.944; 4536.278
784.127;  136.003;    4.944; 4588.278
784.701;   50.593;   30.944; 4512.278
785.275;   12.553;    5.944; 4372.278
785.849;   25.143;   23.944; 4398.278
786.423;  143.973;   18.944; 4344.278
786.997;   31.673;    9.944; 4272.278
787.570;   40.543;   20.944; 4092.278
788.144;   45.293;   23.944; 4066.278
788.718;  103.543;    0.944; 4001.278
789.291;  110.763;   36.944; 4034.278
789.865;   24.483;    5.944; 3826.278
790.438;  172.453;   25.944; 3962.278
791.012;   74.173;   20.944; 3803.278
791.585;   40.733;   19.944; 3718.278
792.159;   60.673;   13.944; 3717.278
792.732;   38.263;   25.944; 3689.278
793.305;   52.603;    5.944; 3563.278
793.879;   74.233;   19.944; 3537.278
794.452;   44.133;   20.944; 3447.278
795.025;   51.793;   35.944; 3414.278
795.598;   40.103;   -4.056; 3358.278
796.171;   74.893;   25.944; 3387.278
796.744;   33.393;   16.944; 3286.278
797.317;   32.743;   35.944; 3259.278
797.890;   52.373;   26.944; 3211.278
798.463;   35.553;    6.944; 3185.278
799.036;   23.653;  -26.056; 3159.278
799.609;   62.873;   21.944; 3147.278
800.182;   30.773;   10.944; 3093.278
800.754;   59.053;   28.944; 3121.278
801.327;   38.683;   32.944; 3034.278
801.900;   23.033;   29.944; 2949.278
802.473;   53.883;   -8.056; 2935.278
803.045;   29.583;   20.944; 2816.278
803.618;   57.663;   33.944; 2902.278
804.190;   16.383;   23.944; 2811.278
804.763;   36.993;   29.944; 2760.278
805.335;   53.983;   28.944; 2797.278
805.908;   26.543;   23.944; 2726.278
806.480;   31.133;   11.944; 2683.278
807.052;   93.563;   32.944; 2673.278
807.625;  117.183;   19.944; 2546.278
808.197;   36.803;   33.944; 2544.278
808.769;   27.753;   40.944; 2527.278
809.341;   36.813;   18.944; 2499.278
809.913;   32.553;   21.944; 2430.278
810.485;   19.953;   10.944; 2411.278
811.057;   44.933;   47.944; 2352.278
811.629;   28.103;   11.944; 2319.278
812.201;   68.973;   30.944; 2399.278
812.773;   28.613;    9.944; 2343.278
813.345;   21.953;   20.944; 2333.278
813.917;  126.723;    8.944; 2358.278
814.489;   37.893;   34.944; 2255.278
815.060;   53.883;   18.944; 2181.278
815.632;   26.833;    9.944; 2193.278
816.204;  153.863;   29.944; 2216.278
816.775;   37.873;    9.944; 2131.278
817.347;   34.323;  -11.056; 2127.278
817.919;   51.173;   48.944; 2104.278
818.490;   59.653;   17.944; 2030.278
819.061;   54.633;   27.944; 2016.278
819.633;   71.533;  -18.056; 2015.278
820.204;   31.513;   29.944; 2043.278
820.776;   38.243;    3.944; 1920.278
821.347;   22.503;   41.944; 1969.278
821.918;   57.303;   20.944; 1918.278
822.489;   70.023;   29.944; 1913.278
823.060;   97.433;   23.944; 1863.278
823.632;   41.413;   12.944; 1812.278
824.203;   27.583;  -20.056; 1782.278
824.774;   38.533;   29.944; 1815.278
825.345;   70.533;   27.944; 1784.278
825.916;   45.583;   22.944; 1745.278
826.487;   54.683;   11.944; 1722.278
827.057;   69.573;   10.944; 1719.278
827.628;   41.863;   23.944; 1723.278
828.199;   57.823;   12.944; 1720.278
828.770;  113.883;    6.944; 1708.278
829.340;   51.303;   18.944; 1685.278
829.911;   30.923;   20.944; 1581.278
830.482;   37.743;   24.944; 1671.278
831.052;   39.653;   17.944; 1590.278
831.623;   36.443;   26.944; 1560.278
832.193;  104.833;   20.944; 1568.278
832.764;   14.993;    5.944; 1510.278
833.334;   11.103;    9.944; 1491.278
833.905;   35.983;   25.944; 1529.278
834.475;   69.763;    8.944; 1522.278
835.045;   27.013;   23.944; 1486.278
835.615;   79.783;   31.944; 1489.278
836.186;  110.303;   17.944; 1461.278
836.756;   60.753;   15.944; 1356.278
837.326;   22.593;   -8.056; 1367.278
837.896;   20.693;   26.944; 1383.278
838.466;   85.733;   28.944; 1376.278
839.036;   51.023;   19.944; 1382.278
839.606;   62.333;   20.944; 1340.278
840.176;   45.833;   20.944; 1337.278
840.746;   38.553;  -17.056; 1345.278
841.315;   37.283;   29.944; 1324.278
841.885;   93.393;   28.944; 1337.278
842.455;  121.713;   21.944; 1338.278
843.025;  204.173;   43.944; 1292.278
843.594;  100.803;   14.944; 1308.278
844.164;   76.713;    7.944; 1238.278
844.733;   92.683;   21.944; 1216.278
845.303;  120.893;    1.944; 1199.278
845.872;   31.613;   22.944; 1188.278
846.442;   22.643;   24.944; 1162.278
847.011;   30.023;   24.944; 1163.278
847.581;   46.723;    7.944; 1178.278
848.150;   26.933;   19.944; 1139.278
848.719;   65.213;   32.944; 1116.278
849.288;   39.973;   41.944; 1137.278
849.858;   84.623;   33.944; 1121.278
850.427;   67.263;   34.944; 1165.278
850.996;  112.393;   10.944; 1115.278
851.565;  204.143;    5.944; 1146.278
852.134;   30.813;   43.944; 1084.278
852.703;   28.193;    9.944; 1050.278
853.272;   50.223;    0.944; 1032.278
853.841;   66.063;   28.944; 1031.278
854.409;   27.933;   37.944; 1019.278
854.978;    4.313;   -5.056;  948.278
855.547;   15.283;   23.944;  999.278
856.116;  164.543;   19.944; 1082.278
856.684;   69.513;   23.944;  967.278
857.253;   60.023;   15.944;  955.278
857.822;   18.483;    2.944;  948.278
858.390;   56.793;   40.944;  969.278
858.959;   19.853;   -3.056;  937.278
859.527;  103.543;   32.944;  951.278
860.096;   70.863;    8.944;  953.278
860.664;   43.203;   10.944;  874.278
861.232;  158.543;   17.944;  928.278
861.801;   76.123;   31.944;  916.278
862.369;   23.023;  -12.056;  821.278
862.937;   26.783;   15.944;  858.278
863.505;   23.813;   42.944;  857.278
864.073;   24.113;   13.944;  840.278
864.641;   28.543;    0.944;  834.278
865.209;   39.453;   18.944;  834.278
865.777;   24.713;    4.944;  857.278
866.345;   41.903;   42.944;  828.278
866.913;   76.313;   29.944;  834.278
867.481;   33.383;   15.944;  811.278
868.049;   69.853;   22.944;  783.278
868.617;   75.823;   27.944;  754.278
869.184;   52.333;    0.944;  792.278
869.752;   32.013;    9.944;  743.278
870.320;   20.293;   40.944;  745.278
870.887;   32.453;   26.944;  737.278
871.455;  172.683;    6.944;  713.278
872.022;   37.993;   15.944;  780.278
872.590;   53.643;    9.944;  711.278
873.157;   39.863;   11.944;  712.278
873.725;   63.433;   12.944;  720.278
874.292;   39.933;   30.944;  734.278
874.859;   76.113;   16.944;  712.278
875.426;   46.473;   31.944;  725.278
875.994;   45.723;    0.944;  706.278
876.561;   21.323;   23.944;  654.278
877.128;  161.433;    2.944;  671.278
877.695;   13.613;   -2.056;  636.278
878.262;  151.313;   24.944;  662.278
878.829;   30.633;    7.944;  705.278
879.396;   92.353;   10.944;  675.278
879.963;   36.023;   22.944;  657.278
880.530;   38.703;   37.944;  632.278
881.097;   26.123;   23.944;  691.278
881.663;   49.123;   10.944;  620.278
882.230;   40.853;   22.944;  651.278
882.797;   26.203;    2.944;  648.278
883.363;  101.133;   51.944;  674.278
883.930;   97.023;   38.944;  621.278
884.497;   31.553;   38.944;  618.278
885.063;  187.083;   30.944;  609.278
885.630;  104.133;   24.944;  642.278
886.196;   45.533;   18.944;  603.278
886.762;   37.863;   38.944;  606.278
887.329;   17.843;   30.944;  639.278
887.895;   54.453;   18.944;  570.278
888.461;   29.103;   31.944;  591.278
889.027;   31.843;   18.944;  589.278
889.594;   18.153;    0.944;  597.278
890.160;  218.703;   32.944;  569.278
890.726;   44.023;   18.944;  567.278
891.292;   21.253;   20.944;  541.278
891.858;   97.453;   14.944;  564.278
892.424;   32.583;   35.944;  528.278
892.990;   71.563;  -12.056;  530.278
893.556;   49.143;   20.944;  539.278
894.121;   26.613;   21.944;  542.278
894.687;   29.903;   18.944;  484.278
895.253;   66.133;   24.944;  540.278
895.819;   36.543;    8.944;  529.278
896.384;   30.563;   25.944;  553.278
896.950;   52.683;   13.944;  505.278
897.515;   15.523;   12.944;  452.278
898.081;   37.643;   11.944;  484.278
898.646;   36.193;   33.944;  446.278
899.212;   18.513;   13.944;  492.278
899.777;   24.283;   15.944;  430.278
900.342;   65.793;  -22.056;  510.278
900.908;   17.933;   24.944;  494.278
901.473;   35.633;   25.944;  477.278
902.038;   20.593;   15.944;  464.278
902.603;   48.573;   22.944;  461.278
903.168;   76.013;   21.944;  461.278
903.734;   40.553;   -2.056;  455.278
904.299;    9.663;   11.944;  334.278
904.864;   61.513;   24.944;  436.278
905.428;   63.743;   38.944;  444.278
905.993;   24.003;   27.944;  400.278
906.558;   34.343;   31.944;  417.278
907.123;   30.793;   -3.056;  437.278
907.688;   43.323;    5.944;  388.278
908.252;   21.443;   36.944;  448.278
908.817;   14.833;   38.944;  418.278
909.382;   59.663;    8.944;  390.278
909.946;   21.653;   29.944;  382.278
910.511;   21.733;   35.944;  398.278
911.075;   83.283;    5.944;  404.278
911.640;   45.403;   16.944;  403.278
912.204;   52.913;   29.944;  389.278
912.769;   61.993;   17.944;  367.278
913.333;   80.453;   28.944;  377.278
913.897;   24.043;   -8.056;  380.278
914.461;   43.273;   11.944;  349.278
915.026;   64.453;    3.944;  372.278
915.590;  140.633;   29.944;  399.278
916.154;   19.773;   23.944;  388.278
916.718;   39.923;   -3.056;  340.278
917.282;  124.973;    8.944;  362.278
917.846;   45.363;   10.944;  348.278
918.410;   34.393;   21.944;  353.278
918.974;   36.343;    2.944;  378.278
919.537;   56.623;   23.944;  366.278
920.101;   49.153;   19.944;  323.278
920.665;   27.093;   14.944;  390.278
921.229;   30.373;   35.944;  364.278
921.792;  108.593;   44.944;  377.278
922.356;   21.743;   24.944;  341.278
922.919;   42.713;    8.944;  331.278
923.483;   16.693;   24.944;  325.278
924.046;   54.163;  -19.056;  362.278
924.610;   34.613;   23.944;  352.278
925.173;   43.003;   25.944;  376.278
925.737;   35.443;   13.944;  353.278
926.300;   64.023;    3.944;  326.278
926.863;   35.273;   27.944;  341.278
927.426;   49.733;    2.944;  306.278
927.989;   53.063;   35.944;  332.278
928.553;   23.953;   17.944;  310.278
929.116;   56.503;   10.944;  343.278
929.679;   23.393;   12.944;  334.278
930.242;   27.443;   16.944;  327.278
930.805;   21.663;    4.944;  306.278
931.367;   59.203;   27.944;  307.278
931.930;   62.093;   36.944;  297.278
932.493;   23.353;   23.944;  297.278
933.056;   31.203;   29.944;  299.278
933.619;   25.043;   25.944;  309.278
934.181;   63.033;   14.944;  285.278
934.744;   48.983;   47.944;  296.278
935.306;   72.913;   26.944;  260.278
935.869;   15.013;    9.944;  291.278
936.431;   36.113;   33.944;  268.278
936.994;  102.693;   50.944;  280.278
937.556;   31.343;   24.944;  274.278
938.119;   12.353;   40.944;  232.278
938.681;   39.023;   65.944;  261.278
939.243;    8.283;   15.944;  222.278
939.805;   26.483;   18.944;  212.278
940.368;   18.673;   17.944;  181.278
940.930;   81.253;   19.944;  224.278
941.492;   49.563;   13.944;  198.278
942.054;   21.083;   18.944;  209.278
942.616;   34.883;   28.944;  206.278
943.178;   23.213;   39.944;  210.278
943.740;    8.143;   -5.056;  158.278
944.301;   29.463;    5.944;  205.278
944.863;   54.063;   -5.056;  196.278
945.425;   60.873;   23.944;  207.278
945.987;   26.863;    4.944;  199.278
946.548;   28.393;   28.944;  195.278
947.110;   27.053;   27.944;  188.278
947.672;   51.103;   22.944;  202.278
948.233;  183.133;   18.944;  209.278
948.795;   49.263;   -0.056;  195.278
949.356;   51.833;    5.944;  171.278
949.917;   57.263;   20.944;  178.278
950.479;   52.793;   20.944;  187.278
951.040;   20.323;   14.944;  198.278
951.601;   40.353;   30.944;  179.278
952.163;   15.023;   -8.056;  175.278
952.724;   54.163;   33.944;  199.278
953.285;   21.023;   25.944;  181.278
953.846;   26.213;   10.944;  213.278
954.407;  204.063;    2.944;  231.278
954.968;   26.603;   22.944;  181.278
955.529;   51.483;  -12.056;  207.278
956.090;  107.213;   13.944;  196.278
956.651;   80.293;   16.944;  192.278
957.211;   69.103;   -7.056;  165.278
957.772;   39.183;   12.944;  182.278
958.333;   13.893;   20.944;  189.278
958.894;   12.443;   15.944;  212.278
959.454;   22.453;   25.944;  208.278
960.015;   17.553;   19.944;  198.278
960.575;   54.973;   11.944;  217.278
961.136;   10.863;    5.944;  212.278
961.696;  115.223;   22.944;  182.278
962.257;   34.023;   15.944;  224.278
962.817;   53.723;   18.944;  183.278
963.377;   53.363;   22.944;  210.278
963.938;   12.443;    7.944;  174.278
964.498;   22.803;   14.944;  175.278
965.058;   26.033;   10.944;  210.278
965.618;   27.923;   -9.056;  205.278
966.178;   12.883;   36.944;  181.278
966.738;   13.893;   22.944;  203.278
967.298;   53.753;   22.944;  207.278
967.858;   15.343;    8.944;  177.278
968.418;   40.423;   14.944;  164.278
968.978;   25.223;    7.944;  190.278
969.538;   18.333;   18.944;  181.278
970.097;    9.503;    0.944;  189.278
970.657;   86.073;   21.944;  178.278
971.217;   27.273;   26.944;  174.278
971.776;   13.603;   24.944;  173.278
972.336;   19.433;    2.944;  188.278
972.895;   25.823;   17.944;  186.278
973.455;    9.263;    1.944;  143.278
974.014;   88.743;   16.944;  191.278
974.574;  123.223;   25.944;  174.278
975.133;   21.033;   10.944;  152.278
975.692;   56.913;    5.944;  179.278
976.252;   25.173;   41.944;  189.278
976.811;   26.393;   29.944;  147.278
977.370;   20.363;    9.944;  175.278
977.929;   64.133;   36.944;  140.278
978.488;   28.913;   19.944;  165.278
979.047;   14.193;   13.944;  166.278
979.606;   11.903;   29.944;  145.278
980.165;   14.553;   13.944;  167.278
980.724;   17.363;   21.944;  168.278
981.283;   26.063;   12.944;  110.278
981.841;   34.583;   23.944;  163.278
982.400;   15.773;  -12.056;  158.278
982.959;   96.243;   31.944;  167.278
983.517;   20.453;    5.944;  148.278
984.076;   22.693;   21.944;  135.278
984.635;    8.593;   14.944;  129.278
985.193;   25.343;   26.944;  147.278
985.752;   34.753;   24.944;  145.278
986.310;   44.723;  -16.056;  136.278
986.868;   13.193;   25.944;  163.278
987.427;   15.743;   26.944;  112.278
987.985;   12.523;   32.944;  135.278
988.543;   17.223;   13.944;  124.278
989.101;   14.173;   10.944;  128.278
989.659;   27.003;  -18.056;  143.278
990.217;    3.473;   12.944;  150.278
990.775;   21.653;   43.944;  145.278
991.333;   13.863;   -2.056;   86.278
991.891;   50.143;    0.944;  110.278
992.449;   31.773;   23.944;  125.278
993.007;    8.223;   17.944;  121.278
993.565;   18.113;   12.944;  140.278
994.123;   19.123;   23.944;  143.278
994.680;   14.963;   15.944;  113.278
995.238;   48.893;   18.944;  134.278
995.796;   29.163;   23.944;  136.278
996.353;   23.433;   15.944;  142.278
996.911;   81.703;   20.944;  137.278
997.468;   44.223;   10.944;  112.278
998.026;   31.993;   16.944;  109.278
998.583;   21.163;   16.944;  102.278
999.140;    6.943;   22.944;  131.278
999.698;   17.523;   23.944;  130.278
1000.255;   52.473;   10.944;  136.278
1000.812;   27.803;   13.944;  116.278
1001.369;   20.063;   21.944;  119.278
1001.926;   38.473;   12.944;  127.278
1002.483;   46.563;   20.944;  149.278
1003.040;   25.273;   28.944;  126.278
1003.597;   37.133;    1.944;  130.278
1004.154;   11.803;   49.944;  127.278
1004.711;   25.093;    9.944;  127.278
1005.268;    8.793;    9.944;   84.278
1005.825;   92.983;   37.944;  109.278
1006.381;   14.203;   29.944;  121.278
1006.938;    8.793;  -12.056;   87.278
1007.495;   10.213;   27.944;  121.278
1008.051;   14.613;   29.944;  108.278
1008.608;   12.883;   21.944;   96.278
1009.164;   24.123;   35.944;  112.278
1009.721;    4.533;   28.944;   99.278
1010.277;   11.953;   18.944;  128.278
1010.833;   19.733;   29.944;  100.278
1011.390;   12.033;    9.944;  124.278
1011.946;   18.943;   22.944;  104.278
1012.502;   29.443;   39.944;  117.278
1013.058;   21.593;   10.944;  112.278
1013.614;   20.773;   27.944;   94.278
1014.170;    9.693;   11.944;   84.278
1014.726;   40.753;    4.944;  110.278
1015.282;   29.863;   28.944;  102.278
1015.838;   25.573;   20.944;  106.278
1016.394;   25.953;    8.944;  121.278
1016.950;   21.273;   24.944;  110.278
1017.506;   15.613;   13.944;  113.278
1018.062;    9.413;   17.944;   97.278
1018.617;    9.123;    9.944;   89.278
1019.173;    9.433;   43.944;  112.278
1019.728;   14.363;   11.944;   91.278
1020.284;   65.903;   17.944;   98.278
1020.839;   10.883;   19.944;   88.278
1021.395;   17.483;   13.944;   94.278
1021.950;   13.173;    4.944;   76.278
1022.506;   25.883;    6.944;  119.278
1023.061;   61.063;   23.944;   91.278
1023.616;   12.253;   24.944;   80.278
1024.171;   30.843;    9.944;   99.278
1024.727;   20.263;   -0.056;  102.278
1025.282;   10.233;   34.944;   71.278
1025.837;    3.683;   12.944;   73.278
1026.392;    4.423;   13.944;   46.278
1026.947;   20.413;   27.944;   89.278
1027.502;   23.583;   10.944;   63.278
1028.056;   10.353;   18.944;   77.278
1028.611;    9.453;   25.944;   72.278
1029.166;   28.703;   17.944;   79.278
1029.721;   17.873;   24.944;   68.278
1030.275;   50.913;   12.944;   99.278
1030.830;   15.703;   -3.056;   84.278
1031.385;   44.033;   35.944;   74.278
1031.939;   25.523;   15.944;   65.278
1032.494;   45.773;    1.944;   68.278
1033.048;   14.963;   21.944;   95.278
1033.602;   13.533;   19.944;   62.278
1034.157;   10.743;    0.944;   65.278
1034.711;   16.133;   36.944;   56.278
1035.265;    6.353;   19.944;   70.278
1035.820;   22.053;    9.944;   75.278
1036.374;   13.713;   10.944;   87.278
1036.928;    4.333;   -2.056;   50.278
1037.482;   15.413;   11.944;   76.278
1038.036;   25.313;   16.944;   97.278
1038.590;   20.793;   31.944;   31.278
1039.144;   10.073;   20.944;   69.278
1039.698;   12.553;   31.944;   89.278
1040.251;   21.323;   10.944;   60.278
1040.805;    7.993;   -8.056;   70.278
1041.359;   50.793;    6.944;   71.278
1041.913;   30.933;   39.944;   66.278
1042.466;   20.333;   20.944;   64.278
1043.020;   12.193;   20.944;   68.278
1043.573;   49.653;   30.944;   61.278
1044.127;   14.683;   34.944;   65.278
1044.680;   15.083;   -3.056;   71.278
1045.234;    6.223;   27.944;   66.278
1045.787;   23.423;   25.944;   52.278
1046.340;   14.523;   24.944;   66.278
1046.893;   11.743;   12.944;   52.278
1047.447;  210.493;   37.944;   87.278
1048.000;   19.023;   24.944;   73.278
1048.553;    7.033;   39.944;   72.278
1049.106;   50.953;   39.944;   59.278
1049.659;   15.733;   51.944;   72.278
1050.212;   29.053;   31.944;   81.278
1050.765;   12.013;   23.944;   58.278
1051.317;   23.473;   10.944;   66.278
1051.870;   18.573;    6.944;   43.278
1052.423;   12.483;   32.944;   36.278
1052.976;   20.413;   10.944;   60.278
1053.528;   22.813;   20.944;   57.278
1054.081;   47.503;   28.944;   77.278
1054.634;   15.753;   10.944;   53.278
1055.186;   14.213;   -0.056;   68.278
1055.738;    7.173;   28.944;   40.278
1056.291;   10.783;   31.944;   54.278
1056.843;    8.983;   37.944;   60.278
1057.396;   12.163;    4.944;   56.278
1057.948;   28.793;   18.944;   58.278
1058.500;   17.493;    1.944;   58.278
1059.052;   37.633;   18.944;   53.278
1059.604;   25.163;   37.944;   64.278
1060.156;   12.653;   33.944;   80.278
1060.708;    7.723;   38.944;   79.278
1061.260;   21.593;   23.944;   59.278
1061.812;    7.823;   10.944;   26.278
1062.364;   13.793;   21.944;   66.278
1062.916;    6.733;   49.944;   38.278
1063.468;   10.653;   24.944;   57.278
1064.019;   14.753;   36.944;   65.278
1064.571;   27.623;   34.944;   81.278
1065.123;  105.913;    9.944;   53.278
1065.674;    7.753;   23.944;   57.278
1066.226;   23.753;   29.944;   58.278
1066.777;   10.333;   13.944;   62.278
1067.329;   11.613;   18.944;   58.278
1067.880;    6.563;   13.944;   58.278
1068.431;   32.003;  -11.056;   52.278
1068.983;   12.863;   19.944;   63.278
1069.534;    1.203;  -10.056;   11.278
1070.085;   13.303;   32.944;   51.278
1070.636;   11.043;   29.944;   53.278
1071.187;    6.383;    3.944;   38.278
1071.738;    9.463;  -13.056;   41.278
1072.289;   12.353;   29.944;   61.278
1072.840;   36.103;   -2.056;   45.278
1073.391;   26.563;   23.944;   44.278
1073.942;   10.363;   50.944;  109.278
1074.493;   14.083;   34.944;   50.278
1075.044;   32.593;   -0.056;   70.278
1075.594;    4.923;   35.944;   44.278
1076.145;    6.993;   16.944;   20.278
1076.696;    7.363;   14.944;   56.278
1077.246;    5.193;   24.944;   35.278
1077.797;   12.533;   -9.056;    3.278
1078.347;    8.563;    2.944;   32.278
1078.897;   10.013;   37.944;   48.278
1079.448;   15.873;    4.944;   36.278
1079.998;    8.583;   25.944;   63.278
1080.548;   24.043;   28.944;   29.278
1081.099;   11.303;   20.944;   38.278
1081.649;   11.733;    9.944;   54.278
1082.199;    4.953;   41.944;   52.278
1082.749;    5.593;   11.944;   29.278
1083.299;   11.073;   23.944;   58.278
1083.849;   10.353;    7.944;   37.278
1084.399;   10.303;   29.944;   67.278
1084.949;    5.193;  -24.056;   40.278
1085.498;   16.733;   44.944;   50.278
1086.048;   24.723;   14.944;   51.278
1086.598;    1.313;    6.944;   36.278
1087.147;   20.443;   13.944;   49.278
1087.697;   13.433;   20.944;   46.278
1088.247;   14.103;  -16.056;   45.278
1088.796;    0.983;    4.944;   13.278
1089.346;    8.343;   26.944;   56.278
1089.895;   25.653;   23.944;   64.278
1090.444;   28.893;   29.944;   39.278
1090.994;    5.853;   40.944;   44.278
1091.543;    7.613;   11.944;   40.278
1092.092;    1.933;  -13.056;   16.278
1092.641;   21.263;   12.944;   70.278
1093.190;    7.123;   13.944;   37.278
1093.739;    8.863;    9.944;   42.278
1094.288;   21.103;   32.944;   54.278
1094.837;   17.363;   10.944;   52.278
1095.386;   12.713;   15.944;   31.278
1095.935;   11.733;   35.944;   38.278
1096.484;   17.423;   31.944;   29.278
1097.033;    5.893;   21.944;   29.278
1097.581;   14.993;   42.944;   44.278
1098.130;   29.033;   22.944;   47.278
1098.679;   16.233;   20.944;   43.278
1099.227;    6.923;   16.944;   52.278
1099.776;   12.423;   31.944;   38.278
1100.324;    9.123;   20.944;   46.278

