
Integration time [ms]:   0.010
Averaging Nr. [scans]: 100
Smoothing Nr. [pixels]: 0
Data measured with spectrometer [name]: 1403004U1
Wave   ;Sample   ;Dark     ;Reference;Scope
[nm]   ;[counts] ;[counts] ;[counts] 

333.246;   87.019;   35.944;  118.278
333.846;   82.569;   38.944;  103.278
334.446;   20.939;   33.944;   96.278
335.047;   67.919;    0.944;   86.278
335.647;   55.199;   48.944;  118.278
336.247;   58.409;   12.944;  143.278
336.847;   66.299;   18.944;  141.278
337.446;   68.859;   29.944;  110.278
338.046;   45.229;   21.944;  125.278
338.646;   32.549;   31.944;  121.278
339.246;   31.329;   33.944;  115.278
339.846;   41.639;   38.944;  130.278
340.446;   35.959;   11.944;   65.278
341.046;   53.729;   37.944;  110.278
341.645;   35.469;    8.944;   98.278
342.245;   28.889;   45.944;  117.278
342.845;   41.159;   14.944;  121.278
343.444;   53.659;   22.944;  118.278
344.044;   30.069;   19.944;  121.278
344.644;   34.809;   17.944;   63.278
345.243;   30.039;   -4.056;   94.278
345.843;   32.889;   28.944;  104.278
346.442;   58.669;   22.944;  121.278
347.042;   20.969;   20.944;   76.278
347.641;   30.189;   31.944;   95.278
348.241;   35.319;   14.944;   71.278
348.840;   48.729;   39.944;  134.278
349.439;   24.969;   24.944;  116.278
350.039;   23.379;   19.944;  112.278
350.638;   62.719;   20.944;   99.278
351.237;   43.779;   16.944;   89.278
351.837;   54.369;   16.944;   79.278
352.436;   64.549;   21.944;  110.278
353.035;   81.549;   50.944;  108.278
353.634;   43.169;   37.944;  107.278
354.233;   29.319;   29.944;   86.278
354.833;   74.089;   31.944;   91.278
355.432;   41.969;    7.944;   43.278
356.031;   35.809;   26.944;   92.278
356.630;  117.389;   19.944;   91.278
357.229;   27.299;   23.944;   99.278
357.828;   20.149;   30.944;   93.278
358.427;   80.239;   24.944;   95.278
359.026;   31.219;    6.944;   46.278
359.624;   39.239;   14.944;   89.278
360.223;   24.189;   14.944;  109.278
360.822;   34.219;   22.944;  104.278
361.421;   20.349;    5.944;   73.278
362.020;   53.119;   14.944;   81.278
362.619;   42.939;   18.944;  104.278
363.217;   13.299;   28.944;   84.278
363.816;   42.849;   22.944;   90.278
364.415;   41.629;    5.944;   90.278
365.013;   88.009;   30.944;   80.278
365.612;   79.489;   20.944;   90.278
366.210;   80.049;   27.944;   74.278
366.809;   70.919;   28.944;  107.278
367.408;   21.109;   17.944;   79.278
368.006;   38.339;   36.944;   92.278
368.605;   34.839;   19.944;   79.278
369.203;   61.949;   22.944;   81.278
369.801;   22.459;   45.944;   63.278
370.400;    9.969;   21.944;  103.278
370.998;  112.239;   13.944;   74.278
371.596;   41.189;   30.944;   91.278
372.195;   79.759;    0.944;   90.278
372.793;   29.329;   21.944;   83.278
373.391;   29.829;   27.944;   65.278
373.989;   36.859;    5.944;   89.278
374.588;   44.269;   18.944;   75.278
375.186;   52.969;   29.944;   71.278
375.784;   64.979;    9.944;   71.278
376.382;   52.269;   28.944;  122.278
376.980;   52.969;   25.944;   40.278
377.578;   43.349;   10.944;   69.278
378.176;   40.049;    7.944;   79.278
378.774;   38.419;    7.944;   75.278
379.372;   34.279;    7.944;   55.278
379.970;   45.509;   27.944;   80.278
380.568;   52.159;   28.944;   38.278
381.166;   57.969;   30.944;   81.278
381.764;   16.019;   30.944;   43.278
382.361;   12.919;   -5.056;   81.278
382.959;   35.939;    0.944;   60.278
383.557;   53.409;   23.944;   63.278
384.155;   61.989;   14.944;   52.278
384.752;   76.309;   10.944;   99.278
385.350;   22.829;   20.944;   62.278
385.948;  103.249;   13.944;   70.278
386.545;   39.899;   16.944;   41.278
387.143;   66.219;    4.944;   64.278
387.740;   31.059;   22.944;   43.278
388.338;   26.879;   19.944;   73.278
388.935;   50.619;   21.944;   61.278
389.533;   13.999;    3.944;   98.278
390.130;  157.519;   25.944;   88.278
390.728;   47.309;   14.944;   69.278
391.325;   13.999;   -1.056;   22.278
391.922;   14.189;   -8.056;   32.278
392.520;  100.169;   24.944;   73.278
393.117;   18.079;    5.944;   52.278
393.714;   35.199;    6.944;   46.278
394.311;   32.529;   12.944;   45.278
394.909;   70.669;   16.944;   60.278
395.506;   31.499;   19.944;   96.278
396.103;   50.069;    7.944;   62.278
396.700;   33.629;   24.944;   71.278
397.297;   52.629;   33.944;   66.278
397.894;   70.789;   15.944;   56.278
398.491;   53.759;   18.944;   62.278
399.088;  120.519;    2.944;  101.278
399.685;   37.829;  -28.056;   57.278
400.282;   42.929;   17.944;   85.278
400.879;   83.869;   10.944;   78.278
401.476;   77.879;   14.944;   63.278
402.073;   98.539;   24.944;   66.278
402.669;   63.479;   28.944;   66.278
403.266;   41.679;   -0.056;   46.278
403.863;   54.269;   14.944;   59.278
404.460;   20.879;   12.944;   67.278
405.056;   65.269;   23.944;   59.278
405.653;   32.699;   23.944;   47.278
406.250;   11.899;   38.944;   85.278
406.846;   78.709;   -7.056;   93.278
407.443;  172.039;   49.944;   75.278
408.039;   99.889;   12.944;   63.278
408.636;   97.459;   44.944;   89.278
409.232;   65.839;    2.944;   84.278
409.829;   31.659;   -6.056;   80.278
410.425;   59.049;   11.944;   45.278
411.022;   34.839;   25.944;   69.278
411.618;   19.169;   35.944;   70.278
412.214;   22.349;   34.944;   72.278
412.811;   32.059;   -6.056;   30.278
413.407;   12.489;   -5.056;   68.278
414.003;   61.369;   17.944;   68.278
414.599;   68.369;   28.944;   85.278
415.195;   34.669;   28.944;   64.278
415.792;   61.149;   11.944;   79.278
416.388;   52.179;   44.944;   66.278
416.984;   43.909;   -8.056;   90.278
417.580;   68.739;   21.944;   90.278
418.176;   29.969;    9.944;   70.278
418.772;   34.329;   40.944;   71.278
419.368;   22.759;   23.944;   61.278
419.964;   39.439;   34.944;   49.278
420.560;   44.299;   15.944;   79.278
421.156;   38.769;   23.944;   53.278
421.751;   62.009;   13.944;   83.278
422.347;   32.879;    6.944;   84.278
422.943;   46.989;   20.944;   72.278
423.539;   41.829;    2.944;   51.278
424.135;   24.999;   18.944;   74.278
424.730;   38.909;   27.944;   53.278
425.326;   15.779;   12.944;   78.278
425.922;   59.979;    5.944;   60.278
426.517;   97.079;   40.944;   89.278
427.113;   89.439;   14.944;   43.278
427.708;   76.709;   28.944;   72.278
428.304;   78.999;   35.944;   67.278
428.899;   63.159;   43.944;   92.278
429.495;   24.509;   17.944;   56.278
430.090;  119.799;   -1.056;   73.278
430.686;   27.829;   -4.056;   38.278
431.281;   85.689;   16.944;   79.278
431.876;   72.819;   42.944;   86.278
432.472;   49.579;    7.944;   48.278
433.067;   58.829;   18.944;   60.278
433.662;   49.569;   18.944;   63.278
434.257;  133.549;   -6.056;   67.278
434.853;   67.109;   26.944;   97.278
435.448;    6.259;   16.944;   32.278
436.043;   43.299;   18.944;   70.278
436.638;   78.399;   30.944;   79.278
437.233;   56.279;   21.944;   73.278
437.828;   44.239;   -1.056;   90.278
438.423;   36.189;   51.944;   46.278
439.018;   44.419;   18.944;   73.278
439.613;   53.669;   42.944;   83.278
440.208;   82.719;   -0.056;   62.278
440.803;   75.109;   20.944;   43.278
441.398;   58.019;   -1.056;   93.278
441.992;   23.899;   48.944;   84.278
442.587;   57.159;   36.944;   79.278
443.182;  102.699;   32.944;   77.278
443.777;   23.929;    9.944;   57.278
444.371;   64.159;   -3.056;   52.278
444.966;   47.079;   13.944;   96.278
445.561;  100.769;    5.944;   65.278
446.155;   69.939;   31.944;   68.278
446.750;   42.689;  -10.056;   58.278
447.344;   72.729;   15.944;   68.278
447.939;   13.279;   -6.056;   30.278
448.533;   27.309;   19.944;   76.278
449.128;   61.309;    6.944;   62.278
449.722;   75.649;   45.944;   85.278
450.317;   31.719;   16.944;   62.278
450.911;   18.199;   21.944;   19.278
451.505;   80.929;    0.944;   82.278
452.099;  108.459;   30.944;   67.278
452.694;   35.789;   17.944;   78.278
453.288;   35.029;    9.944;   67.278
453.882;   39.309;   31.944;   73.278
454.476;   69.949;    9.944;   65.278
455.070;  127.919;   30.944;   93.278
455.665;   22.329;    1.944;   71.278
456.259;   53.899;   31.944;   71.278
456.853;   49.609;   28.944;   74.278
457.447;   88.459;   33.944;   80.278
458.041;   71.179;    4.944;   74.278
458.635;  124.259;   25.944;   95.278
459.229;  125.159;   30.944;   83.278
459.822;   31.449;   21.944;   97.278
460.416;   92.919;   11.944;   82.278
461.010;   52.019;   35.944;   81.278
461.604;   41.839;   -4.056;   61.278
462.198;   46.259;   36.944;   57.278
462.791;   76.469;  -10.056;   72.278
463.385;   40.729;    2.944;   85.278
463.979;   69.729;   18.944;   94.278
464.572;   54.999;   16.944;   60.278
465.166;    9.979;   11.944;   62.278
465.760;   53.749;   25.944;   70.278
466.353;   55.679;   20.944;   78.278
466.947;  118.629;   24.944;   85.278
467.540;   28.479;    5.944;   84.278
468.134;   62.869;   26.944;   33.278
468.727;   51.399;   15.944;   97.278
469.320;   78.829;   31.944;   77.278
469.914;   34.489;    3.944;   72.278
470.507;   27.569;   13.944;   56.278
471.100;   97.299;   10.944;   58.278
471.694;   42.929;   12.944;   66.278
472.287;   31.179;    2.944;  100.278
472.880;   83.469;   20.944;   68.278
473.473;  109.239;   27.944;   82.278
474.066;   80.619;    8.944;   85.278
474.659;   60.869;    3.944;   55.278
475.252;  117.199;   -1.056;   76.278
475.845;   54.809;   19.944;   78.278
476.438;   17.669;   20.944;   71.278
477.031;   95.589;   11.944;  104.278
477.624;   38.629;   40.944;   83.278
478.217;   81.869;   20.944;   60.278
478.810;  107.359;   26.944;   83.278
479.403;   33.179;   -2.056;   73.278
479.996;   68.229;   10.944;   80.278
480.589;  156.329;   29.944;   81.278
481.181;   50.909;   27.944;   80.278
481.774;   58.349;   22.944;   55.278
482.367;   91.989;   15.944;   98.278
482.959;   85.359;   -3.056;   74.278
483.552;   58.949;   27.944;   82.278
484.145;   39.269;   12.944;   68.278
484.737;  105.439;   30.944;   85.278
485.330;   38.269;    2.944;   59.278
485.922;   35.189;   15.944;   93.278
486.515;   53.189;   14.944;  103.278
487.107;   91.459;    7.944;   62.278
487.699;   67.739;   26.944;   68.278
488.292;   62.839;   20.944;   65.278
488.884;   45.749;   30.944;   84.278
489.476;   37.239;   18.944;   75.278
490.069;   84.609;   24.944;   95.278
490.661;   40.319;  -13.056;   74.278
491.253;   57.619;   33.944;  108.278
491.845;   91.309;   20.944;   56.278
492.437;   41.469;   24.944;   69.278
493.030;   51.519;   27.944;   95.278
493.622;   37.749;   30.944;   73.278
494.214;   46.089;  -20.056;   94.278
494.806;  102.979;   41.944;   88.278
495.398;   32.439;   23.944;   68.278
495.990;   54.329;   10.944;   85.278
496.582;   72.379;    8.944;   66.278
497.173;  115.919;   10.944;   97.278
497.765;   63.839;  -16.056;   92.278
498.357;   28.399;   40.944;   98.278
498.949;   33.359;   18.944;   70.278
499.541;   71.249;   13.944;   81.278
500.132;   39.109;   12.944;   74.278
500.724;   60.149;   24.944;   78.278
501.316;   65.989;   11.944;   85.278
501.907;  131.549;   52.944;   57.278
502.499;   91.199;   21.944;   92.278
503.090;   44.549;   17.944;   69.278
503.682;   33.409;   13.944;   85.278
504.274;   52.899;   38.944;   68.278
504.865;  114.359;    1.944;   72.278
505.456;  130.209;   35.944;   24.278
506.048;   28.139;   11.944;   72.278
506.639;   42.059;   23.944;   94.278
507.230;   39.879;   18.944;  108.278
507.822;  102.959;   11.944;   84.278
508.413;   58.729;   24.944;   62.278
509.004;  101.939;   32.944;   72.278
509.595;   41.179;    0.944;   85.278
510.187;   28.819;   24.944;   94.278
510.778;   45.409;   16.944;   86.278
511.369;   27.199;  -10.056;   71.278
511.960;  109.299;   13.944;   48.278
512.551;   21.989;   11.944;   70.278
513.142;   39.629;   21.944;   75.278
513.733;   30.789;    3.944;   59.278
514.324;   69.219;   23.944;   63.278
514.915;  118.099;    5.944;   72.278
515.506;   40.489;   40.944;   41.278
516.097;  137.759;   19.944;   75.278
516.687;   77.719;   20.944;   91.278
517.278;   46.639;   14.944;   91.278
517.869;  109.249;   25.944;   82.278
518.460;   56.639;   11.944;   70.278
519.050;   77.599;   36.944;   71.278
519.641;   35.099;    3.944;   61.278
520.231;   33.869;   24.944;   55.278
520.822;   68.039;   25.944;   59.278
521.413;   35.669;   10.944;   75.278
522.003;   70.999;   11.944;   79.278
522.594;  123.479;   22.944;   66.278
523.184;   30.949;   17.944;   71.278
523.774;   58.609;    5.944;   77.278
524.365;   59.999;   24.944;   85.278
524.955;   79.079;   20.944;   73.278
525.546;   36.479;   14.944;   79.278
526.136;   13.189;   17.944;   39.278
526.726;   99.529;   35.944;   84.278
527.316;   84.729;   21.944;   62.278
527.906;   30.569;  -18.056;   80.278
528.497;   22.879;   10.944;   97.278
529.087;   54.579;    5.944;   79.278
529.677;   16.259;    8.944;   60.278
530.267;   35.469;   -0.056;   77.278
530.857;  157.509;   -0.056;   62.278
531.447;   38.999;   26.944;   86.278
532.037;   41.079;   11.944;   79.278
532.627;   39.049;   11.944;   76.278
533.217;   50.649;    6.944;   46.278
533.806;   40.299;   20.944;   39.278
534.396;   96.169;   28.944;   77.278
534.986;   20.789;    6.944;   95.278
535.576;   36.199;   -1.056;   74.278
536.165;   76.879;   30.944;   51.278
536.755;   30.989;   23.944;   69.278
537.345;  114.079;   31.944;   80.278
537.934;   53.689;   16.944;   57.278
538.524;   72.529;   14.944;   61.278
539.114;   30.129;  -15.056;   77.278
539.703;   36.829;   10.944;   50.278
540.293;   42.229;   18.944;  106.278
540.882;   26.599;   25.944;   60.278
541.471;   74.009;   16.944;   74.278
542.061;   39.629;   25.944;   82.278
542.650;   67.669;   28.944;   79.278
543.239;  109.469;  -11.056;   67.278
543.829;   24.429;   43.944;   98.278
544.418;   58.859;   11.944;   89.278
545.007;   58.509;   13.944;   77.278
545.596;   36.119;   17.944;   65.278
546.185;  167.109;   45.944;   75.278
546.775;   20.799;  -17.056;   51.278
547.364;   35.479;   10.944;   82.278
547.953;   73.039;   29.944;   90.278
548.542;   47.119;    3.944;   82.278
549.131;   30.129;   11.944;   89.278
549.720;   42.079;    8.944;   69.278
550.309;   23.899;   12.944;   53.278
550.897;   53.709;   15.944;   85.278
551.486;   38.319;   24.944;   79.278
552.075;   28.109;   18.944;   62.278
552.664;   31.139;   27.944;   84.278
553.253;  118.579;    9.944;   36.278
553.841;   58.609;   20.944;   90.278
554.430;   63.559;   19.944;   91.278
555.019;   54.199;   22.944;   67.278
555.607;   65.489;   12.944;   92.278
556.196;   25.199;   25.944;   86.278
556.784;   41.599;   23.944;   51.278
557.373;  106.569;    6.944;   97.278
557.961;   45.439;    8.944;   65.278
558.550;   31.729;   15.944;   64.278
559.138;   16.689;    7.944;   73.278
559.726;   32.769;  -17.056;   77.278
560.315;   67.219;   22.944;   80.278
560.903;   96.029;   13.944;   70.278
561.491;   83.359;    4.944;   62.278
562.080;   21.389;  -11.056;   60.278
562.668;   49.359;   52.944;   76.278
563.256;   25.899;   22.944;   60.278
563.844;   23.579;    1.944;   75.278
564.432;   17.139;    1.944;   69.278
565.020;   69.929;   19.944;   68.278
565.608;   38.309;    1.944;   66.278
566.196;   41.719;   32.944;   72.278
566.784;   13.619;   -0.056;   59.278
567.372;   41.659;   13.944;   64.278
567.960;   14.599;   -9.056;   36.278
568.548;   97.539;   17.944;   69.278
569.136;   31.579;   15.944;   70.278
569.723;   69.819;   40.944;   79.278
570.311;   38.059;   31.944;   46.278
570.899;   65.659;   12.944;   80.278
571.487;   63.469;   17.944;   76.278
572.074;   37.399;   36.944;   83.278
572.662;   78.969;   -0.056;   55.278
573.249;   63.109;   28.944;   91.278
573.837;   69.419;   31.944;   52.278
574.424;   64.249;   39.944;  104.278
575.012;   48.689;   15.944;   71.278
575.599;   74.009;    4.944;   73.278
576.187;   25.379;   11.944;   69.278
576.774;   18.849;   36.944;   76.278
577.361;   62.239;   28.944;   50.278
577.949;   74.189;   20.944;   75.278
578.536;   34.829;   25.944;   74.278
579.123;   44.199;   32.944;   74.278
579.710;   38.089;    9.944;   92.278
580.298;   24.569;   17.944;   89.278
580.885;   48.259;   15.944;   43.278
581.472;   78.599;   19.944;   97.278
582.059;   84.119;   23.944;   73.278
582.646;  139.339;   31.944;   72.278
583.233;   81.379;   11.944;   64.278
583.820;   81.079;   18.944;   89.278
584.407;  169.609;   24.944;   60.278
584.994;  101.239;   26.944;   74.278
585.580;   52.709;   10.944;   88.278
586.167;   92.499;   20.944;   64.278
586.754;   55.659;   42.944;   80.278
587.341;  127.179;   13.944;   84.278
587.927;   61.519;   50.944;   55.278
588.514;  110.129;   38.944;   42.278
589.101;  228.089;   17.944;   66.278
589.687;   64.279;   30.944;   88.278
590.274;   96.849;   -2.056;   68.278
590.861;   88.169;   30.944;   57.278
591.447;  114.519;   24.944;   81.278
592.033;  125.839;   13.944;   67.278
592.620;   78.499;   20.944;   48.278
593.206;  157.659;   33.944;   88.278
593.793;  122.059;   -5.056;   70.278
594.379;  190.369;   35.944;   70.278
594.965;  169.029;    7.944;   95.278
595.552;   81.859;    5.944;   76.278
596.138;  228.279;   -2.056;   74.278
596.724;  121.519;    0.944;  107.278
597.310;  110.349;   -9.056;  107.278
597.896;   73.559;   20.944;  121.278
598.482;  136.889;   25.944;   94.278
599.068;  230.049;    5.944;  103.278
599.654;  166.779;   -2.056;  133.278
600.240;  177.269;   22.944;  143.278
600.826;  191.859;   -0.056;  152.278
601.412;  206.169;   17.944;  149.278
601.998;  175.749;   -6.056;  133.278
602.584;  160.579;  -10.056;  168.278
603.170;  193.379;   10.944;  177.278
603.755;  274.159;   14.944;  208.278
604.341;  298.519;    3.944;  202.278
604.927;  183.749;    1.944;  224.278
605.512;  177.649;    7.944;  250.278
606.098;  273.459;   20.944;  282.278
606.684;  211.879;   10.944;  270.278
607.269;  261.649;   22.944;  341.278
607.855;  194.329;   27.944;  344.278
608.440;  226.959;   26.944;  381.278
609.026;  205.849;  -16.056;  363.278
609.611;  462.829;   22.944;  455.278
610.196;  297.929;   26.944;  468.278
610.782;  363.059;   -7.056;  588.278
611.367;  501.369;   20.944;  658.278
611.952;  427.759;   30.944;  723.278
612.538;  359.559;    8.944;  739.278
613.123;  356.979;    6.944;  710.278
613.708;  302.889;   19.944;  680.278
614.293;  531.929;   -2.056;  783.278
614.878;  357.499;   38.944;  753.278
615.463;  467.679;   27.944;  835.278
616.048;  469.249;    2.944;  855.278
616.633;  485.389;   18.944;  910.278
617.218;  427.539;    3.944;  861.278
617.803;  566.729;   -1.056;  934.278
618.388;  513.109;   24.944;  997.278
618.973;  504.499;  -17.056; 1047.278
619.557;  397.549;   18.944; 1053.278
620.142;  557.039;   28.944; 1136.278
620.727;  678.129;   22.944; 1177.278
621.312;  765.179;   13.944; 1264.278
621.896;  804.719;   32.944; 1389.278
622.481;  733.659;    4.944; 1464.278
623.066;  806.889;    5.944; 1518.278
623.650;  818.209;   22.944; 1632.278
624.235;  852.679;   -0.056; 1670.278
624.819;  982.349;   13.944; 1824.278
625.404; 1070.539;   17.944; 1864.278
625.988; 1049.949;   35.944; 2023.278
626.572; 1010.049;   16.944; 2040.278
627.157; 1202.409;   28.944; 2107.278
627.741; 1119.639;   13.944; 2268.278
628.325; 1287.449;   41.944; 2364.278
628.909; 1434.299;   14.944; 2511.278
629.494; 1424.829;   49.944; 2544.278
630.078; 1602.099;   17.944; 2665.278
630.662; 1474.719;   25.944; 2786.278
631.246; 1514.639;    3.944; 2928.278
631.830; 1812.779;   20.944; 3065.278
632.414; 1817.279;    9.944; 3100.278
632.998; 2192.949;   13.944; 3266.278
633.582; 2029.689;    9.944; 3373.278
634.166; 2143.949;   14.944; 3474.278
634.750; 2338.939;    1.944; 3630.278
635.333; 2399.269;   43.944; 3818.278
635.917; 2644.689;   13.944; 4001.278
636.501; 2846.969;   31.944; 4138.278
637.085; 2840.439;   18.944; 4169.278
637.668; 3086.079;   25.944; 4329.278
638.252; 3550.949;    6.944; 4579.278
638.836; 3747.929;   37.944; 4810.278
639.419; 3805.139;   20.944; 4871.278
640.003; 4013.789;   16.944; 5028.278
640.586; 4143.529;   19.944; 5304.278
641.170; 4472.359;   28.944; 5439.278
641.753; 4670.349;  -12.056; 5687.278
642.337; 4894.349;   21.944; 5795.278
642.920; 5568.969;   17.944; 6126.278
643.503; 5411.959;    6.944; 6206.278
644.087; 5975.509;   31.944; 6355.278
644.670; 6282.259;    8.944; 6523.278
645.253; 6649.159;  -14.056; 6733.278
645.836; 7102.809;   19.944; 6873.278
646.419; 7602.429;   36.944; 7183.278
647.002; 8158.949;   22.944; 7389.278
647.585; 8475.669;   17.944; 7587.278
648.168; 8602.579;  -36.056; 7868.278
648.751; 9541.979;   14.944; 7980.278
649.334;10253.969;   -8.056; 8167.278
649.917;11081.889;   12.944; 8404.278
650.500;11410.049;   29.944; 8719.278
651.083;11715.039;   12.944; 8958.278
651.666;12710.769;   10.944; 9076.278
652.249;14098.259;   20.944; 9529.278
652.831;14405.299;   -4.056; 9708.278
653.414;15450.279;   19.944; 9965.278
653.997;15878.399;   45.944;10155.278
654.579;17027.899;   22.944;10472.278
655.162;17306.879;   15.944;10680.278
655.744;18228.049;   28.944;10970.278
656.327;19175.189;   24.944;11138.278
656.909;20589.879;    7.944;11555.278
657.492;21859.449;   36.944;11794.278
658.074;21940.159;   14.944;12108.278
658.657;23569.339;   37.944;12509.278
659.239;24895.829;   21.944;12823.278
659.821;26528.409;   30.944;13199.278
660.404;27806.199;   -0.056;13725.278
660.986;28745.129;   34.944;14164.278
661.568;31061.769;   17.944;14654.278
662.150;32031.259;   23.944;14843.278
662.732;32758.009;   30.944;15379.278
663.314;33489.969;   34.944;15736.278
663.896;34138.829;    2.944;16046.278
664.478;33493.119;   27.944;16199.278
665.060;32546.409;   16.944;16485.278
665.642;31064.079;   42.944;16669.278
666.224;28350.969;   20.944;16366.278
666.806;26577.659;   28.944;16621.278
667.388;24683.499;   12.944;16619.278
667.969;22276.979;   25.944;16858.278
668.551;19727.269;   20.944;17146.278
669.133;17662.269;   11.944;17189.278
669.715;15488.039;   21.944;17236.278
670.296;13875.219;   13.944;17639.278
670.878;12102.149;   11.944;17909.278
671.459;10967.399;   27.944;18161.278
672.041; 9581.379;   20.944;18458.278
672.622; 8402.629;   17.944;18644.278
673.204; 7365.559;    7.944;18975.278
673.785; 6615.519;    6.944;19212.278
674.366; 6002.359;   10.944;19442.278
674.948; 5377.279;   21.944;19617.278
675.529; 4361.439;    5.944;19632.278
676.110; 4006.999;   26.944;19905.278
676.692; 3905.629;   12.944;20350.278
677.273; 3432.409;   44.944;20659.278
677.854; 2943.359;   23.944;20722.278
678.435; 2621.869;   17.944;21128.278
679.016; 2462.309;   10.944;21110.278
679.597; 2200.789;   29.944;21227.278
680.178; 2059.679;   35.944;21581.278
680.759; 1873.089;    4.944;21903.278
681.340; 1233.089;   25.944;21656.278
681.921; 1612.989;   14.944;22157.278
682.502; 1395.079;   17.944;22193.278
683.082;  984.989;   24.944;22158.278
683.663; 1001.219;   29.944;22283.278
684.244;  948.399;   -0.056;22426.278
684.825;  807.459;   24.944;22446.278
685.405;  759.539;   15.944;22634.278
685.986;  649.179;   29.944;22889.278
686.566;  627.759;   15.944;23001.278
687.147;  664.109;   14.944;22937.278
687.727;  473.359;    7.944;23017.278
688.308;  641.199;   38.944;23035.278
688.888;  554.399;    9.944;23452.278
689.469;  528.029;   32.944;23228.278
690.049;  329.269;    4.944;23460.278
690.629;  352.559;    4.944;23796.278
691.210;  446.939;   24.944;23777.278
691.790;  435.819;   11.944;24070.278
692.370;  387.189;   15.944;23870.278
692.950;  354.229;   31.944;23878.278
693.530;  378.219;   11.944;23838.278
694.110;  589.959;    1.944;24212.278
694.690;  334.349;   20.944;23991.278
695.270;  263.729;   16.944;24205.278
695.850;  314.819;   12.944;24269.278
696.430;  270.269;   18.944;24221.278
697.010;  283.059;   -0.056;24356.278
697.590;  237.129;   21.944;24175.278
698.170;  156.619;   -0.056;24286.278
698.750;  258.899;   31.944;24140.278
699.329;  210.399;    6.944;24472.278
699.909;  122.809;   20.944;24404.278
700.489;  216.439;   31.944;24491.278
701.068;  187.099;   16.944;24509.278
701.648;  363.489;   -1.056;24790.278
702.228;  140.409;   38.944;24574.278
702.807;   73.509;   11.944;24448.278
703.386;  151.679;   36.944;24295.278
703.966;  266.969;   25.944;24346.278
704.545;  198.609;   26.944;23973.278
705.125;  107.569;   22.944;23913.278
705.704;   44.349;  -21.056;23684.278
706.283;  116.859;   33.944;24091.278
706.863;   47.229;   11.944;23905.278
707.442;  151.979;   10.944;23834.278
708.021;  178.789;    6.944;23712.278
708.600;   72.019;   28.944;23454.278
709.179;   84.839;  -12.056;23585.278
709.758;   91.849;   14.944;23370.278
710.337;   67.369;   40.944;23373.278
710.916;  110.229;   16.944;23412.278
711.495;  108.099;   13.944;23067.278
712.074;   51.649;   26.944;22908.278
712.653;  125.689;  -17.056;22685.278
713.232;  123.519;   17.944;22628.278
713.810;   75.419;   23.944;22374.278
714.389;  109.739;   39.944;22425.278
714.968;   78.009;   16.944;22166.278
715.547;   81.509;   26.944;22198.278
716.125;   88.749;  -20.056;21874.278
716.704;  166.219;   18.944;21791.278
717.282;   39.599;   24.944;21274.278
717.861;  100.489;   11.944;21281.278
718.439;   34.659;   14.944;20885.278
719.018;  129.029;   22.944;20729.278
719.596;   53.939;   -3.056;20527.278
720.174;   76.049;   25.944;20505.278
720.753;  108.669;   34.944;20328.278
721.331;   39.629;   18.944;20060.278
721.909;  138.739;   24.944;19704.278
722.487;   85.259;    5.944;19441.278
723.066;   62.369;  -18.056;19032.278
723.644;  197.209;   42.944;19526.278
724.222;  116.089;   14.944;18922.278
724.800;   63.479;   27.944;18662.278
725.378;   70.579;   15.944;18618.278
725.956;   57.219;   13.944;18292.278
726.534;   42.609;   -3.056;18189.278
727.112;   63.689;   36.944;17871.278
727.690;   56.409;    8.944;17589.278
728.267;   76.749;   -3.056;17399.278
728.845;   40.869;   21.944;17120.278
729.423;   38.209;   31.944;16894.278
730.001;   43.149;    3.944;16911.278
730.578;   57.299;   29.944;16912.278
731.156;   38.119;   29.944;16721.278
731.733;   36.409;   11.944;16428.278
732.311;   74.789;   18.944;16229.278
732.888;   23.029;   10.944;15939.278
733.466;   22.939;   -6.056;15650.278
734.043;   29.949;   31.944;15448.278
734.621;   93.969;   24.944;15234.278
735.198;   33.769;   26.944;15122.278
735.775;   34.279;   22.944;14923.278
736.353;   60.509;   -4.056;14801.278
736.930;   46.549;   -1.056;14740.278
737.507;   23.849;   47.944;14249.278
738.084;   61.549;   12.944;14207.278
738.661;   22.489;   22.944;13877.278
739.238;   61.069;   22.944;13744.278
739.815;   21.689;   -9.056;13406.278
740.392;   18.429;  -11.056;13254.278
740.969;  172.619;   33.944;13441.278
741.546;   36.199;   24.944;13160.278
742.123;  131.319;   22.944;13148.278
742.700;   40.559;   18.944;12671.278
743.277;   60.529;   -2.056;12591.278
743.853;   78.369;   23.944;12340.278
744.430;   44.639;   21.944;12116.278
745.007;  112.349;   10.944;12078.278
745.584;   71.449;   22.944;11917.278
746.160;   38.009;   -0.056;11749.278
746.737;   22.019;    8.944;11642.278
747.313;   32.519;   -4.056;11462.278
747.890;   13.249;  -17.056;11279.278
748.466;   23.309;    0.944;11128.278
749.043;   35.279;   14.944;10888.278
749.619;   65.699;   17.944;10813.278
750.195;   41.249;   24.944;10629.278
750.771;   42.199;   -9.056;10441.278
751.348;   16.739;    1.944;10190.278
751.924;   25.239;   24.944;10078.278
752.500;   33.219;   23.944;10010.278
753.076;   39.779;   31.944; 9908.278
753.652;   51.869;   26.944; 9734.278
754.228;   26.829;    7.944; 9637.278
754.804;   46.449;   15.944; 9505.278
755.380;   48.999;   -1.056; 9417.278
755.956;   26.189;   20.944; 9176.278
756.532;   61.329;   20.944; 9047.278
757.108;   22.059;   10.944; 8908.278
757.684;   12.219;   22.944; 8914.278
758.260;   47.939;    4.944; 8790.278
758.835;   14.529;   31.944; 8574.278
759.411;   41.949;   27.944; 8503.278
759.987;   28.309;   24.944; 8376.278
760.562;   25.939;   24.944; 8185.278
761.138;   34.489;    9.944; 8141.278
761.713;   23.439;  -11.056; 8001.278
762.289;   62.549;   14.944; 7909.278
762.864;   75.279;    9.944; 7762.278
763.440;   24.299;   21.944; 7714.278
764.015;   46.239;   25.944; 7552.278
764.590;  143.149;   33.944; 7628.278
765.166;   52.979;  -15.056; 7484.278
765.741;   50.759;   35.944; 7297.278
766.316;   42.569;   15.944; 7255.278
766.891;   54.629;    9.944; 7080.278
767.466;   46.369;   21.944; 7094.278
768.041;   18.729;   21.944; 6856.278
768.616;   28.779;   -5.056; 6738.278
769.191;   28.739;   26.944; 6557.278
769.766;   12.979;   13.944; 6462.278
770.341;   12.849;   23.944; 6313.278
770.916;   70.109;   17.944; 6282.278
771.491;   61.709;   24.944; 6201.278
772.066;   26.089;   -7.056; 6150.278
772.641;   22.829;   37.944; 6089.278
773.215;   20.089;   18.944; 5920.278
773.790;   99.079;   27.944; 5993.278
774.365;   39.729;   -2.056; 5822.278
774.939;   29.629;    7.944; 5803.278
775.514;   95.129;   -2.056; 5664.278
776.088;   75.319;   32.944; 5572.278
776.663;   44.309;   10.944; 5462.278
777.237;  110.209;   17.944; 5489.278
777.812;  101.459;    8.944; 5381.278
778.386;   53.919;   15.944; 5238.278
778.960;   27.299;    3.944; 5188.278
779.535;   78.569;   20.944; 5187.278
780.109;   42.489;    7.944; 5044.278
780.683;   31.059;   11.944; 4924.278
781.257;   47.309;   22.944; 4941.278
781.831;   49.769;   10.944; 4800.278
782.405;  108.049;   -6.056; 4709.278
782.980;   39.989;   40.944; 4632.278
783.554;   16.529;    2.944; 4536.278
784.127;   94.449;    4.944; 4588.278
784.701;   55.039;   30.944; 4512.278
785.275;   14.859;    5.944; 4372.278
785.849;   33.179;   23.944; 4398.278
786.423;  150.269;   18.944; 4344.278
786.997;   36.399;    9.944; 4272.278
787.570;   54.559;   20.944; 4092.278
788.144;   54.589;   23.944; 4066.278
788.718;   99.909;    0.944; 4001.278
789.291;  111.919;   36.944; 4034.278
789.865;   27.299;    5.944; 3826.278
790.438;  150.479;   25.944; 3962.278
791.012;   81.609;   20.944; 3803.278
791.585;   40.349;   19.944; 3718.278
792.159;   88.909;   13.944; 3717.278
792.732;   44.949;   25.944; 3689.278
793.305;   58.239;    5.944; 3563.278
793.879;   89.839;   19.944; 3537.278
794.452;   51.639;   20.944; 3447.278
795.025;   66.269;   35.944; 3414.278
795.598;   55.779;   -4.056; 3358.278
796.171;   62.759;   25.944; 3387.278
796.744;   53.759;   16.944; 3286.278
797.317;   37.689;   35.944; 3259.278
797.890;   57.829;   26.944; 3211.278
798.463;   34.589;    6.944; 3185.278
799.036;   23.969;  -26.056; 3159.278
799.609;   72.099;   21.944; 3147.278
800.182;   36.019;   10.944; 3093.278
800.754;   75.899;   28.944; 3121.278
801.327;   48.409;   32.944; 3034.278
801.900;   24.719;   29.944; 2949.278
802.473;   65.349;   -8.056; 2935.278
803.045;   28.889;   20.944; 2816.278
803.618;   69.709;   33.944; 2902.278
804.190;   16.389;   23.944; 2811.278
804.763;   39.909;   29.944; 2760.278
805.335;   57.419;   28.944; 2797.278
805.908;   21.929;   23.944; 2726.278
806.480;   39.049;   11.944; 2683.278
807.052;  107.569;   32.944; 2673.278
807.625;  124.829;   19.944; 2546.278
808.197;   43.699;   33.944; 2544.278
808.769;   33.879;   40.944; 2527.278
809.341;   47.069;   18.944; 2499.278
809.913;   41.249;   21.944; 2430.278
810.485;   18.729;   10.944; 2411.278
811.057;   60.749;   47.944; 2352.278
811.629;   36.319;   11.944; 2319.278
812.201;   97.809;   30.944; 2399.278
812.773;   31.149;    9.944; 2343.278
813.345;   31.069;   20.944; 2333.278
813.917;  127.069;    8.944; 2358.278
814.489;   50.219;   34.944; 2255.278
815.060;   56.649;   18.944; 2181.278
815.632;   29.019;    9.944; 2193.278
816.204;  152.729;   29.944; 2216.278
816.775;   45.959;    9.944; 2131.278
817.347;   35.059;  -11.056; 2127.278
817.919;   51.489;   48.944; 2104.278
818.490;   60.959;   17.944; 2030.278
819.061;   57.619;   27.944; 2016.278
819.633;   86.069;  -18.056; 2015.278
820.204;   37.879;   29.944; 2043.278
820.776;   43.889;    3.944; 1920.278
821.347;   26.989;   41.944; 1969.278
821.918;   60.659;   20.944; 1918.278
822.489;   71.249;   29.944; 1913.278
823.060;  100.509;   23.944; 1863.278
823.632;   43.239;   12.944; 1812.278
824.203;   28.869;  -20.056; 1782.278
824.774;   36.639;   29.944; 1815.278
825.345;   82.199;   27.944; 1784.278
825.916;   54.089;   22.944; 1745.278
826.487;   71.019;   11.944; 1722.278
827.057;   71.089;   10.944; 1719.278
827.628;   42.539;   23.944; 1723.278
828.199;   48.089;   12.944; 1720.278
828.770;  123.689;    6.944; 1708.278
829.340;   63.669;   18.944; 1685.278
829.911;   32.299;   20.944; 1581.278
830.482;   39.119;   24.944; 1671.278
831.052;   50.459;   17.944; 1590.278
831.623;   37.539;   26.944; 1560.278
832.193;  100.139;   20.944; 1568.278
832.764;   15.919;    5.944; 1510.278
833.334;    9.229;    9.944; 1491.278
833.905;   38.459;   25.944; 1529.278
834.475;   80.999;    8.944; 1522.278
835.045;   32.839;   23.944; 1486.278
835.615;   82.739;   31.944; 1489.278
836.186;  111.879;   17.944; 1461.278
836.756;   70.299;   15.944; 1356.278
837.326;   23.569;   -8.056; 1367.278
837.896;   25.119;   26.944; 1383.278
838.466;   95.719;   28.944; 1376.278
839.036;   63.599;   19.944; 1382.278
839.606;   62.869;   20.944; 1340.278
840.176;   56.549;   20.944; 1337.278
840.746;   51.609;  -17.056; 1345.278
841.315;   40.159;   29.944; 1324.278
841.885;  101.569;   28.944; 1337.278
842.455;  144.929;   21.944; 1338.278
843.025;  172.669;   43.944; 1292.278
843.594;   99.929;   14.944; 1308.278
844.164;   95.159;    7.944; 1238.278
844.733;  119.399;   21.944; 1216.278
845.303;  147.499;    1.944; 1199.278
845.872;   31.529;   22.944; 1188.278
846.442;   30.099;   24.944; 1162.278
847.011;   34.679;   24.944; 1163.278
847.581;   58.249;    7.944; 1178.278
848.150;   30.019;   19.944; 1139.278
848.719;   67.199;   32.944; 1116.278
849.288;   42.759;   41.944; 1137.278
849.858;   90.249;   33.944; 1121.278
850.427;   71.179;   34.944; 1165.278
850.996;  127.759;   10.944; 1115.278
851.565;  130.969;    5.944; 1146.278
852.134;   33.049;   43.944; 1084.278
852.703;   24.529;    9.944; 1050.278
853.272;   51.609;    0.944; 1032.278
853.841;   53.289;   28.944; 1031.278
854.409;   40.439;   37.944; 1019.278
854.978;    5.439;   -5.056;  948.278
855.547;   17.189;   23.944;  999.278
856.116;  159.639;   19.944; 1082.278
856.684;   77.689;   23.944;  967.278
857.253;   50.989;   15.944;  955.278
857.822;   19.609;    2.944;  948.278
858.390;   57.809;   40.944;  969.278
858.959;   22.499;   -3.056;  937.278
859.527;  110.299;   32.944;  951.278
860.096;   76.499;    8.944;  953.278
860.664;   42.839;   10.944;  874.278
861.232;  129.879;   17.944;  928.278
861.801;   84.889;   31.944;  916.278
862.369;   27.189;  -12.056;  821.278
862.937;   35.099;   15.944;  858.278
863.505;   26.239;   42.944;  857.278
864.073;   25.159;   13.944;  840.278
864.641;   32.689;    0.944;  834.278
865.209;   45.429;   18.944;  834.278
865.777;   24.599;    4.944;  857.278
866.345;   46.039;   42.944;  828.278
866.913;   88.069;   29.944;  834.278
867.481;   28.929;   15.944;  811.278
868.049;   82.259;   22.944;  783.278
868.617;   78.259;   27.944;  754.278
869.184;   52.649;    0.944;  792.278
869.752;   33.079;    9.944;  743.278
870.320;   28.909;   40.944;  745.278
870.887;   36.199;   26.944;  737.278
871.455;  120.489;    6.944;  713.278
872.022;   42.449;   15.944;  780.278
872.590;   69.289;    9.944;  711.278
873.157;   36.499;   11.944;  712.278
873.725;   65.159;   12.944;  720.278
874.292;   42.189;   30.944;  734.278
874.859;   78.449;   16.944;  712.278
875.426;   54.859;   31.944;  725.278
875.994;   51.849;    0.944;  706.278
876.561;   26.309;   23.944;  654.278
877.128;  131.869;    2.944;  671.278
877.695;   10.929;   -2.056;  636.278
878.262;  162.999;   24.944;  662.278
878.829;   37.209;    7.944;  705.278
879.396;   85.399;   10.944;  675.278
879.963;   37.129;   22.944;  657.278
880.530;   52.419;   37.944;  632.278
881.097;   29.729;   23.944;  691.278
881.663;   53.559;   10.944;  620.278
882.230;   51.679;   22.944;  651.278
882.797;   24.629;    2.944;  648.278
883.363;  105.889;   51.944;  674.278
883.930;   97.609;   38.944;  621.278
884.497;   39.679;   38.944;  618.278
885.063;  176.849;   30.944;  609.278
885.630;   97.869;   24.944;  642.278
886.196;   55.829;   18.944;  603.278
886.762;   45.239;   38.944;  606.278
887.329;   18.389;   30.944;  639.278
887.895;   68.139;   18.944;  570.278
888.461;   32.199;   31.944;  591.278
889.027;   45.279;   18.944;  589.278
889.594;   18.709;    0.944;  597.278
890.160;  164.999;   32.944;  569.278
890.726;   46.269;   18.944;  567.278
891.292;   21.719;   20.944;  541.278
891.858;   81.709;   14.944;  564.278
892.424;   35.869;   35.944;  528.278
892.990;   77.849;  -12.056;  530.278
893.556;   51.929;   20.944;  539.278
894.121;   30.489;   21.944;  542.278
894.687;   39.239;   18.944;  484.278
895.253;   61.539;   24.944;  540.278
895.819;   43.829;    8.944;  529.278
896.384;   37.109;   25.944;  553.278
896.950;   57.569;   13.944;  505.278
897.515;   14.999;   12.944;  452.278
898.081;   41.159;   11.944;  484.278
898.646;   45.389;   33.944;  446.278
899.212;   18.149;   13.944;  492.278
899.777;   27.059;   15.944;  430.278
900.342;   78.449;  -22.056;  510.278
900.908;   19.879;   24.944;  494.278
901.473;   39.249;   25.944;  477.278
902.038;   21.989;   15.944;  464.278
902.603;   53.439;   22.944;  461.278
903.168;   87.429;   21.944;  461.278
903.734;   60.069;   -2.056;  455.278
904.299;   15.249;   11.944;  334.278
904.864;   70.639;   24.944;  436.278
905.428;   78.289;   38.944;  444.278
905.993;   25.659;   27.944;  400.278
906.558;   41.979;   31.944;  417.278
907.123;   34.729;   -3.056;  437.278
907.688;   43.589;    5.944;  388.278
908.252;   20.719;   36.944;  448.278
908.817;   19.289;   38.944;  418.278
909.382;   70.129;    8.944;  390.278
909.946;   23.749;   29.944;  382.278
910.511;   21.169;   35.944;  398.278
911.075;   79.519;    5.944;  404.278
911.640;   47.649;   16.944;  403.278
912.204;   52.299;   29.944;  389.278
912.769;   64.319;   17.944;  367.278
913.333;   80.889;   28.944;  377.278
913.897;   26.689;   -8.056;  380.278
914.461;   45.479;   11.944;  349.278
915.026;   72.459;    3.944;  372.278
915.590;  130.759;   29.944;  399.278
916.154;   22.359;   23.944;  388.278
916.718;   43.529;   -3.056;  340.278
917.282;  118.969;    8.944;  362.278
917.846;   62.859;   10.944;  348.278
918.410;   40.949;   21.944;  353.278
918.974;   48.139;    2.944;  378.278
919.537;   60.339;   23.944;  366.278
920.101;   55.869;   19.944;  323.278
920.665;   35.179;   14.944;  390.278
921.229;   33.699;   35.944;  364.278
921.792;  142.639;   44.944;  377.278
922.356;   24.389;   24.944;  341.278
922.919;   55.179;    8.944;  331.278
923.483;   16.449;   24.944;  325.278
924.046;   43.819;  -19.056;  362.278
924.610;   36.909;   23.944;  352.278
925.173;   45.539;   25.944;  376.278
925.737;   42.279;   13.944;  353.278
926.300;   69.889;    3.944;  326.278
926.863;   43.439;   27.944;  341.278
927.426;   49.449;    2.944;  306.278
927.989;   68.749;   35.944;  332.278
928.553;   25.879;   17.944;  310.278
929.116;   71.749;   10.944;  343.278
929.679;   30.509;   12.944;  334.278
930.242;   34.459;   16.944;  327.278
930.805;   22.759;    4.944;  306.278
931.367;   71.169;   27.944;  307.278
931.930;   64.599;   36.944;  297.278
932.493;   24.939;   23.944;  297.278
933.056;   38.999;   29.944;  299.278
933.619;   27.439;   25.944;  309.278
934.181;   71.409;   14.944;  285.278
934.744;   63.529;   47.944;  296.278
935.306;   89.979;   26.944;  260.278
935.869;   20.629;    9.944;  291.278
936.431;   48.249;   33.944;  268.278
936.994;  123.509;   50.944;  280.278
937.556;   36.249;   24.944;  274.278
938.119;   10.059;   40.944;  232.278
938.681;   57.079;   65.944;  261.278
939.243;   10.479;   15.944;  222.278
939.805;   38.209;   18.944;  212.278
940.368;   25.859;   17.944;  181.278
940.930;   90.459;   19.944;  224.278
941.492;   40.439;   13.944;  198.278
942.054;   24.819;   18.944;  209.278
942.616;   38.199;   28.944;  206.278
943.178;   28.449;   39.944;  210.278
943.740;    8.379;   -5.056;  158.278
944.301;   36.339;    5.944;  205.278
944.863;   69.439;   -5.056;  196.278
945.425;   70.149;   23.944;  207.278
945.987;   34.579;    4.944;  199.278
946.548;   37.729;   28.944;  195.278
947.110;   30.809;   27.944;  188.278
947.672;   60.539;   22.944;  202.278
948.233;  137.279;   18.944;  209.278
948.795;   54.539;   -0.056;  195.278
949.356;   62.609;    5.944;  171.278
949.917;   57.839;   20.944;  178.278
950.479;   57.709;   20.944;  187.278
951.040;   27.809;   14.944;  198.278
951.601;   56.869;   30.944;  179.278
952.163;   15.589;   -8.056;  175.278
952.724;   66.279;   33.944;  199.278
953.285;   21.939;   25.944;  181.278
953.846;   32.429;   10.944;  213.278
954.407;  141.999;    2.944;  231.278
954.968;   33.159;   22.944;  181.278
955.529;   52.229;  -12.056;  207.278
956.090;  104.019;   13.944;  196.278
956.651;   86.939;   16.944;  192.278
957.211;   82.609;   -7.056;  165.278
957.772;   46.489;   12.944;  182.278
958.333;   16.059;   20.944;  189.278
958.894;   11.569;   15.944;  212.278
959.454;   31.159;   25.944;  208.278
960.015;   23.259;   19.944;  198.278
960.575;   56.409;   11.944;  217.278
961.136;    9.769;    5.944;  212.278
961.696;  105.089;   22.944;  182.278
962.257;   45.059;   15.944;  224.278
962.817;   59.109;   18.944;  183.278
963.377;   63.819;   22.944;  210.278
963.938;   17.889;    7.944;  174.278
964.498;   28.219;   14.944;  175.278
965.058;   32.849;   10.944;  210.278
965.618;   34.589;   -9.056;  205.278
966.178;   15.979;   36.944;  181.278
966.738;   14.579;   22.944;  203.278
967.298;   61.079;   22.944;  207.278
967.858;   16.799;    8.944;  177.278
968.418;   55.559;   14.944;  164.278
968.978;   33.819;    7.944;  190.278
969.538;   22.519;   18.944;  181.278
970.097;    9.449;    0.944;  189.278
970.657;   88.899;   21.944;  178.278
971.217;   30.039;   26.944;  174.278
971.776;   17.529;   24.944;  173.278
972.336;   20.979;    2.944;  188.278
972.895;   33.499;   17.944;  186.278
973.455;   12.229;    1.944;  143.278
974.014;   99.649;   16.944;  191.278
974.574;  114.309;   25.944;  174.278
975.133;   22.599;   10.944;  152.278
975.692;   67.869;    5.944;  179.278
976.252;   33.809;   41.944;  189.278
976.811;   29.469;   29.944;  147.278
977.370;   29.209;    9.944;  175.278
977.929;   82.439;   36.944;  140.278
978.488;   38.019;   19.944;  165.278
979.047;   18.729;   13.944;  166.278
979.606;   14.129;   29.944;  145.278
980.165;   17.879;   13.944;  167.278
980.724;   23.479;   21.944;  168.278
981.283;   32.899;   12.944;  110.278
981.841;   43.299;   23.944;  163.278
982.400;   21.829;  -12.056;  158.278
982.959;   92.919;   31.944;  167.278
983.517;   23.339;    5.944;  148.278
984.076;   25.619;   21.944;  135.278
984.635;    8.359;   14.944;  129.278
985.193;   38.819;   26.944;  147.278
985.752;   41.159;   24.944;  145.278
986.310;   71.609;  -16.056;  136.278
986.868;   17.409;   25.944;  163.278
987.427;   20.569;   26.944;  112.278
987.985;   13.099;   32.944;  135.278
988.543;   27.459;   13.944;  124.278
989.101;   14.309;   10.944;  128.278
989.659;   32.379;  -18.056;  143.278
990.217;    5.349;   12.944;  150.278
990.775;   36.489;   43.944;  145.278
991.333;   17.839;   -2.056;   86.278
991.891;   63.609;    0.944;  110.278
992.449;   46.479;   23.944;  125.278
993.007;   10.689;   17.944;  121.278
993.565;   23.709;   12.944;  140.278
994.123;   22.739;   23.944;  143.278
994.680;   23.129;   15.944;  113.278
995.238;   53.819;   18.944;  134.278
995.796;   32.999;   23.944;  136.278
996.353;   26.589;   15.944;  142.278
996.911;   74.999;   20.944;  137.278
997.468;   50.539;   10.944;  112.278
998.026;   46.179;   16.944;  109.278
998.583;   30.169;   16.944;  102.278
999.140;    7.309;   22.944;  131.278
999.698;   25.129;   23.944;  130.278
1000.255;   66.769;   10.944;  136.278
1000.812;   31.169;   13.944;  116.278
1001.369;   24.039;   21.944;  119.278
1001.926;   42.159;   12.944;  127.278
1002.483;   55.649;   20.944;  149.278
1003.040;   33.379;   28.944;  126.278
1003.597;   42.919;    1.944;  130.278
1004.154;   15.999;   49.944;  127.278
1004.711;   30.509;    9.944;  127.278
1005.268;   14.329;    9.944;   84.278
1005.825;   82.139;   37.944;  109.278
1006.381;   20.539;   29.944;  121.278
1006.938;   10.979;  -12.056;   87.278
1007.495;   10.849;   27.944;  121.278
1008.051;   16.339;   29.944;  108.278
1008.608;   18.639;   21.944;   96.278
1009.164;   26.519;   35.944;  112.278
1009.721;    5.259;   28.944;   99.278
1010.277;   15.009;   18.944;  128.278
1010.833;   29.469;   29.944;  100.278
1011.390;   14.549;    9.944;  124.278
1011.946;   23.989;   22.944;  104.278
1012.502;   35.479;   39.944;  117.278
1013.058;   27.399;   10.944;  112.278
1013.614;   30.689;   27.944;   94.278
1014.170;   12.729;   11.944;   84.278
1014.726;   47.099;    4.944;  110.278
1015.282;   34.819;   28.944;  102.278
1015.838;   30.799;   20.944;  106.278
1016.394;   34.469;    8.944;  121.278
1016.950;   25.389;   24.944;  110.278
1017.506;   20.169;   13.944;  113.278
1018.062;    9.679;   17.944;   97.278
1018.617;    9.709;    9.944;   89.278
1019.173;   11.329;   43.944;  112.278
1019.728;   15.889;   11.944;   91.278
1020.284;   46.139;   17.944;   98.278
1020.839;   14.179;   19.944;   88.278
1021.395;   25.949;   13.944;   94.278
1021.950;   15.819;    4.944;   76.278
1022.506;   31.549;    6.944;  119.278
1023.061;   62.889;   23.944;   91.278
1023.616;   16.569;   24.944;   80.278
1024.171;   37.539;    9.944;   99.278
1024.727;   24.909;   -0.056;  102.278
1025.282;   15.389;   34.944;   71.278
1025.837;    3.399;   12.944;   73.278
1026.392;    8.729;   13.944;   46.278
1026.947;   26.879;   27.944;   89.278
1027.502;   35.309;   10.944;   63.278
1028.056;   16.069;   18.944;   77.278
1028.611;   11.089;   25.944;   72.278
1029.166;   45.949;   17.944;   79.278
1029.721;   19.629;   24.944;   68.278
1030.275;   56.269;   12.944;   99.278
1030.830;   22.579;   -3.056;   84.278
1031.385;   52.619;   35.944;   74.278
1031.939;   28.689;   15.944;   65.278
1032.494;   48.269;    1.944;   68.278
1033.048;   26.329;   21.944;   95.278
1033.602;   12.859;   19.944;   62.278
1034.157;   15.479;    0.944;   65.278
1034.711;   20.389;   36.944;   56.278
1035.265;    8.859;   19.944;   70.278
1035.820;   28.769;    9.944;   75.278
1036.374;   15.989;   10.944;   87.278
1036.928;    7.179;   -2.056;   50.278
1037.482;   19.539;   11.944;   76.278
1038.036;   28.619;   16.944;   97.278
1038.590;   39.579;   31.944;   31.278
1039.144;   14.229;   20.944;   69.278
1039.698;   14.289;   31.944;   89.278
1040.251;   34.219;   10.944;   60.278
1040.805;    7.009;   -8.056;   70.278
1041.359;   72.659;    6.944;   71.278
1041.913;   42.399;   39.944;   66.278
1042.466;   29.519;   20.944;   64.278
1043.020;   18.009;   20.944;   68.278
1043.573;   59.829;   30.944;   61.278
1044.127;   19.959;   34.944;   65.278
1044.680;   15.569;   -3.056;   71.278
1045.234;    6.069;   27.944;   66.278
1045.787;   32.269;   25.944;   52.278
1046.340;   18.109;   24.944;   66.278
1046.893;   19.659;   12.944;   52.278
1047.447;  160.759;   37.944;   87.278
1048.000;   21.969;   24.944;   73.278
1048.553;   12.139;   39.944;   72.278
1049.106;   55.279;   39.944;   59.278
1049.659;   20.189;   51.944;   72.278
1050.212;   34.349;   31.944;   81.278
1050.765;   15.459;   23.944;   58.278
1051.317;   27.989;   10.944;   66.278
1051.870;   24.669;    6.944;   43.278
1052.423;   15.959;   32.944;   36.278
1052.976;   25.339;   10.944;   60.278
1053.528;   27.829;   20.944;   57.278
1054.081;   53.099;   28.944;   77.278
1054.634;   20.609;   10.944;   53.278
1055.186;   16.749;   -0.056;   68.278
1055.738;    8.669;   28.944;   40.278
1056.291;   16.099;   31.944;   54.278
1056.843;   10.999;   37.944;   60.278
1057.396;   14.179;    4.944;   56.278
1057.948;   43.709;   18.944;   58.278
1058.500;   27.999;    1.944;   58.278
1059.052;   43.069;   18.944;   53.278
1059.604;   35.469;   37.944;   64.278
1060.156;   15.239;   33.944;   80.278
1060.708;   10.999;   38.944;   79.278
1061.260;   29.059;   23.944;   59.278
1061.812;   15.679;   10.944;   26.278
1062.364;   17.229;   21.944;   66.278
1062.916;   12.679;   49.944;   38.278
1063.468;   16.979;   24.944;   57.278
1064.019;   18.979;   36.944;   65.278
1064.571;   30.239;   34.944;   81.278
1065.123;   83.489;    9.944;   53.278
1065.674;    6.799;   23.944;   57.278
1066.226;   31.739;   29.944;   58.278
1066.777;   14.489;   13.944;   62.278
1067.329;   14.199;   18.944;   58.278
1067.880;   12.449;   13.944;   58.278
1068.431;   38.789;  -11.056;   52.278
1068.983;   19.129;   19.944;   63.278
1069.534;    3.989;  -10.056;   11.278
1070.085;   17.349;   32.944;   51.278
1070.636;   13.499;   29.944;   53.278
1071.187;   10.249;    3.944;   38.278
1071.738;   10.759;  -13.056;   41.278
1072.289;   18.059;   29.944;   61.278
1072.840;   36.509;   -2.056;   45.278
1073.391;   30.789;   23.944;   44.278
1073.942;   19.979;   50.944;  109.278
1074.493;   19.009;   34.944;   50.278
1075.044;   42.359;   -0.056;   70.278
1075.594;    6.839;   35.944;   44.278
1076.145;    9.709;   16.944;   20.278
1076.696;    4.499;   14.944;   56.278
1077.246;    6.929;   24.944;   35.278
1077.797;   16.059;   -9.056;    3.278
1078.347;   10.419;    2.944;   32.278
1078.897;   15.139;   37.944;   48.278
1079.448;   25.219;    4.944;   36.278
1079.998;   10.589;   25.944;   63.278
1080.548;   32.639;   28.944;   29.278
1081.099;   14.729;   20.944;   38.278
1081.649;   12.179;    9.944;   54.278
1082.199;    9.099;   41.944;   52.278
1082.749;   14.249;   11.944;   29.278
1083.299;   10.259;   23.944;   58.278
1083.849;   15.169;    7.944;   37.278
1084.399;   18.979;   29.944;   67.278
1084.949;    9.539;  -24.056;   40.278
1085.498;   31.529;   44.944;   50.278
1086.048;   36.979;   14.944;   51.278
1086.598;    3.379;    6.944;   36.278
1087.147;   29.629;   13.944;   49.278
1087.697;   18.239;   20.944;   46.278
1088.247;   13.139;  -16.056;   45.278
1088.796;    3.319;    4.944;   13.278
1089.346;    8.109;   26.944;   56.278
1089.895;   29.929;   23.944;   64.278
1090.444;   27.719;   29.944;   39.278
1090.994;    6.909;   40.944;   44.278
1091.543;    9.559;   11.944;   40.278
1092.092;    5.549;  -13.056;   16.278
1092.641;   32.679;   12.944;   70.278
1093.190;    9.709;   13.944;   37.278
1093.739;   12.989;    9.944;   42.278
1094.288;   30.919;   32.944;   54.278
1094.837;   19.699;   10.944;   52.278
1095.386;   20.139;   15.944;   31.278
1095.935;   14.009;   35.944;   38.278
1096.484;   29.449;   31.944;   29.278
1097.033;    9.459;   21.944;   29.278
1097.581;   18.579;   42.944;   44.278
1098.130;   36.559;   22.944;   47.278
1098.679;   23.779;   20.944;   43.278
1099.227;    9.379;   16.944;   52.278
1099.776;   20.479;   31.944;   38.278
1100.324;   10.799;   20.944;   46.278

