
Integration time [ms]:   0.105
Averaging Nr. [scans]: 100
Smoothing Nr. [pixels]: 0
Data measured with spectrometer [name]: 1403004U1
Wave   ;Sample   ;Dark     ;Reference;Scope
[nm]   ;[counts] ;[counts] ;[counts] 

333.246;  144.681;   35.944;  118.278
333.846;  121.991;   38.944;  103.278
334.446;   44.791;   33.944;   96.278
335.047;  118.841;    0.944;   86.278
335.647;   79.561;   48.944;  118.278
336.247;  102.371;   12.944;  143.278
336.847;  100.991;   18.944;  141.278
337.446;  123.361;   29.944;  110.278
338.046;   91.681;   21.944;  125.278
338.646;   63.411;   31.944;  121.278
339.246;   74.421;   33.944;  115.278
339.846;   77.981;   38.944;  130.278
340.446;  103.551;   11.944;   65.278
341.046;  117.611;   37.944;  110.278
341.645;   82.491;    8.944;   98.278
342.245;   74.671;   45.944;  117.278
342.845;  100.821;   14.944;  121.278
343.444;  128.101;   22.944;  118.278
344.044;   74.911;   19.944;  121.278
344.644;   84.121;   17.944;   63.278
345.243;   78.221;   -4.056;   94.278
345.843;   93.461;   28.944;  104.278
346.442;  116.131;   22.944;  121.278
347.042;   67.551;   20.944;   76.278
347.641;   79.921;   31.944;   95.278
348.241;  109.331;   14.944;   71.278
348.840;  117.401;   39.944;  134.278
349.439;   88.991;   24.944;  116.278
350.039;   79.261;   19.944;  112.278
350.638;  164.531;   20.944;   99.278
351.237;  119.761;   16.944;   89.278
351.837;  108.011;   16.944;   79.278
352.436;  153.691;   21.944;  110.278
353.035;  145.831;   50.944;  108.278
353.634;  109.231;   37.944;  107.278
354.233;   78.981;   29.944;   86.278
354.833;  126.101;   31.944;   91.278
355.432;   87.991;    7.944;   43.278
356.031;   80.341;   26.944;   92.278
356.630;  228.561;   19.944;   91.278
357.229;   64.531;   23.944;   99.278
357.828;   49.951;   30.944;   93.278
358.427;  134.091;   24.944;   95.278
359.026;   62.241;    6.944;   46.278
359.624;   65.921;   14.944;   89.278
360.223;   41.601;   14.944;  109.278
360.822;   61.391;   22.944;  104.278
361.421;   45.691;    5.944;   73.278
362.020;   99.221;   14.944;   81.278
362.619;   61.621;   18.944;  104.278
363.217;   41.441;   28.944;   84.278
363.816;   62.461;   22.944;   90.278
364.415;   83.261;    5.944;   90.278
365.013;  101.661;   30.944;   80.278
365.612;  106.251;   20.944;   90.278
366.210;  110.261;   27.944;   74.278
366.809;  102.031;   28.944;  107.278
367.408;   42.041;   17.944;   79.278
368.006;   50.001;   36.944;   92.278
368.605;   53.111;   19.944;   79.278
369.203;   80.391;   22.944;   81.278
369.801;   37.571;   45.944;   63.278
370.400;   33.991;   21.944;  103.278
370.998;  149.961;   13.944;   74.278
371.596;   55.241;   30.944;   91.278
372.195;  122.101;    0.944;   90.278
372.793;   43.221;   21.944;   83.278
373.391;   47.361;   27.944;   65.278
373.989;   54.861;    5.944;   89.278
374.588;   53.021;   18.944;   75.278
375.186;   73.031;   29.944;   71.278
375.784;   84.921;    9.944;   71.278
376.382;   76.501;   28.944;  122.278
376.980;   60.211;   25.944;   40.278
377.578;   67.431;   10.944;   69.278
378.176;   58.511;    7.944;   79.278
378.774;   56.861;    7.944;   75.278
379.372;   45.691;    7.944;   55.278
379.970;   60.401;   27.944;   80.278
380.568;   80.721;   28.944;   38.278
381.166;   76.111;   30.944;   81.278
381.764;   25.971;   30.944;   43.278
382.361;   35.061;   -5.056;   81.278
382.959;   47.281;    0.944;   60.278
383.557;   80.351;   23.944;   63.278
384.155;   75.181;   14.944;   52.278
384.752;   82.421;   10.944;   99.278
385.350;   31.961;   20.944;   62.278
385.948;  130.271;   13.944;   70.278
386.545;   68.951;   16.944;   41.278
387.143;   73.751;    4.944;   64.278
387.740;   40.431;   22.944;   43.278
388.338;   46.101;   19.944;   73.278
388.935;   55.591;   21.944;   61.278
389.533;   34.171;    3.944;   98.278
390.130;  158.471;   25.944;   88.278
390.728;   54.961;   14.944;   69.278
391.325;   27.481;   -1.056;   22.278
391.922;   22.881;   -8.056;   32.278
392.520;  104.311;   24.944;   73.278
393.117;   31.901;    5.944;   52.278
393.714;   48.551;    6.944;   46.278
394.311;   47.691;   12.944;   45.278
394.909;   73.021;   16.944;   60.278
395.506;   52.211;   19.944;   96.278
396.103;   53.341;    7.944;   62.278
396.700;   47.951;   24.944;   71.278
397.297;   65.611;   33.944;   66.278
397.894;   91.271;   15.944;   56.278
398.491;   63.121;   18.944;   62.278
399.088;  179.481;    2.944;  101.278
399.685;   45.461;  -28.056;   57.278
400.282;   61.761;   17.944;   85.278
400.879;   91.211;   10.944;   78.278
401.476;  106.581;   14.944;   63.278
402.073;  112.411;   24.944;   66.278
402.669;   68.591;   28.944;   66.278
403.266;   35.321;   -0.056;   46.278
403.863;   60.861;   14.944;   59.278
404.460;   38.401;   12.944;   67.278
405.056;   78.621;   23.944;   59.278
405.653;   45.181;   23.944;   47.278
406.250;   35.371;   38.944;   85.278
406.846;   62.161;   -7.056;   93.278
407.443;  177.711;   49.944;   75.278
408.039;  105.971;   12.944;   63.278
408.636;  126.031;   44.944;   89.278
409.232;   73.281;    2.944;   84.278
409.829;   46.521;   -6.056;   80.278
410.425;   67.231;   11.944;   45.278
411.022;   53.521;   25.944;   69.278
411.618;   35.801;   35.944;   70.278
412.214;   35.421;   34.944;   72.278
412.811;   44.761;   -6.056;   30.278
413.407;   32.911;   -5.056;   68.278
414.003;   56.281;   17.944;   68.278
414.599;   73.871;   28.944;   85.278
415.195;   41.981;   28.944;   64.278
415.792;   67.151;   11.944;   79.278
416.388;   74.291;   44.944;   66.278
416.984;   61.961;   -8.056;   90.278
417.580;   87.821;   21.944;   90.278
418.176;   39.591;    9.944;   70.278
418.772;   46.071;   40.944;   71.278
419.368;   36.281;   23.944;   61.278
419.964;   43.411;   34.944;   49.278
420.560;   53.221;   15.944;   79.278
421.156;   54.931;   23.944;   53.278
421.751;   81.661;   13.944;   83.278
422.347;   40.961;    6.944;   84.278
422.943;   49.601;   20.944;   72.278
423.539;   60.371;    2.944;   51.278
424.135;   39.711;   18.944;   74.278
424.730;   46.731;   27.944;   53.278
425.326;   34.601;   12.944;   78.278
425.922;   65.711;    5.944;   60.278
426.517;   87.061;   40.944;   89.278
427.113;   93.631;   14.944;   43.278
427.708;   82.041;   28.944;   72.278
428.304;   96.721;   35.944;   67.278
428.899;   57.861;   43.944;   92.278
429.495;   33.771;   17.944;   56.278
430.090;  102.331;   -1.056;   73.278
430.686;   33.221;   -4.056;   38.278
431.281;   88.371;   16.944;   79.278
431.876;   72.821;   42.944;   86.278
432.472;   54.251;    7.944;   48.278
433.067;   60.031;   18.944;   60.278
433.662;   42.621;   18.944;   63.278
434.257;  180.421;   -6.056;   67.278
434.853;   64.081;   26.944;   97.278
435.448;    7.091;   16.944;   32.278
436.043;   42.341;   18.944;   70.278
436.638;   75.741;   30.944;   79.278
437.233;   50.141;   21.944;   73.278
437.828;   44.921;   -1.056;   90.278
438.423;   44.541;   51.944;   46.278
439.018;   47.851;   18.944;   73.278
439.613;   47.741;   42.944;   83.278
440.208;   83.761;   -0.056;   62.278
440.803;   57.361;   20.944;   43.278
441.398;   51.351;   -1.056;   93.278
441.992;   31.641;   48.944;   84.278
442.587;   63.281;   36.944;   79.278
443.182;  111.661;   32.944;   77.278
443.777;   36.951;    9.944;   57.278
444.371;   62.111;   -3.056;   52.278
444.966;   46.281;   13.944;   96.278
445.561;   85.081;    5.944;   65.278
446.155;   66.731;   31.944;   68.278
446.750;   34.791;  -10.056;   58.278
447.344;   67.201;   15.944;   68.278
447.939;   13.781;   -6.056;   30.278
448.533;   32.721;   19.944;   76.278
449.128;   55.571;    6.944;   62.278
449.722;   66.211;   45.944;   85.278
450.317;   30.601;   16.944;   62.278
450.911;   23.031;   21.944;   19.278
451.505;   78.351;    0.944;   82.278
452.099;  107.501;   30.944;   67.278
452.694;   39.231;   17.944;   78.278
453.288;   40.611;    9.944;   67.278
453.882;   41.961;   31.944;   73.278
454.476;   52.401;    9.944;   65.278
455.070;  112.091;   30.944;   93.278
455.665;   24.211;    1.944;   71.278
456.259;   46.481;   31.944;   71.278
456.853;   47.241;   28.944;   74.278
457.447;   68.141;   33.944;   80.278
458.041;   54.751;    4.944;   74.278
458.635;  102.121;   25.944;   95.278
459.229;   82.571;   30.944;   83.278
459.822;   34.201;   21.944;   97.278
460.416;   80.311;   11.944;   82.278
461.010;   53.681;   35.944;   81.278
461.604;   37.041;   -4.056;   61.278
462.198;   39.601;   36.944;   57.278
462.791;   63.361;  -10.056;   72.278
463.385;   44.431;    2.944;   85.278
463.979;   54.071;   18.944;   94.278
464.572;   48.191;   16.944;   60.278
465.166;   21.591;   11.944;   62.278
465.760;   47.571;   25.944;   70.278
466.353;   50.791;   20.944;   78.278
466.947;   85.011;   24.944;   85.278
467.540;   35.741;    5.944;   84.278
468.134;   55.911;   26.944;   33.278
468.727;   47.501;   15.944;   97.278
469.320;   63.931;   31.944;   77.278
469.914;   35.641;    3.944;   72.278
470.507;   28.921;   13.944;   56.278
471.100;   84.341;   10.944;   58.278
471.694;   44.571;   12.944;   66.278
472.287;   36.681;    2.944;  100.278
472.880;   62.501;   20.944;   68.278
473.473;   85.041;   27.944;   82.278
474.066;   70.161;    8.944;   85.278
474.659;   44.031;    3.944;   55.278
475.252;  107.501;   -1.056;   76.278
475.845;   46.291;   19.944;   78.278
476.438;   27.401;   20.944;   71.278
477.031;   93.441;   11.944;  104.278
477.624;   45.841;   40.944;   83.278
478.217;   98.151;   20.944;   60.278
478.810;   81.471;   26.944;   83.278
479.403;   39.811;   -2.056;   73.278
479.996;   55.591;   10.944;   80.278
480.589;  140.921;   29.944;   81.278
481.181;   51.751;   27.944;   80.278
481.774;   50.841;   22.944;   55.278
482.367;   76.141;   15.944;   98.278
482.959;   66.081;   -3.056;   74.278
483.552;   58.251;   27.944;   82.278
484.145;   35.841;   12.944;   68.278
484.737;   99.041;   30.944;   85.278
485.330;   32.131;    2.944;   59.278
485.922;   38.431;   15.944;   93.278
486.515;   46.561;   14.944;  103.278
487.107;   80.111;    7.944;   62.278
487.699;   54.341;   26.944;   68.278
488.292;   44.311;   20.944;   65.278
488.884;   46.081;   30.944;   84.278
489.476;   39.401;   18.944;   75.278
490.069;   67.431;   24.944;   95.278
490.661;   37.281;  -13.056;   74.278
491.253;   45.581;   33.944;  108.278
491.845;   73.821;   20.944;   56.278
492.437;   40.461;   24.944;   69.278
493.030;   40.471;   27.944;   95.278
493.622;   38.661;   30.944;   73.278
494.214;   39.491;  -20.056;   94.278
494.806;   84.121;   41.944;   88.278
495.398;   39.531;   23.944;   68.278
495.990;   53.401;   10.944;   85.278
496.582;   67.501;    8.944;   66.278
497.173;  109.711;   10.944;   97.278
497.765;   74.191;  -16.056;   92.278
498.357;   32.111;   40.944;   98.278
498.949;   40.041;   18.944;   70.278
499.541;   62.171;   13.944;   81.278
500.132;   40.351;   12.944;   74.278
500.724;   54.501;   24.944;   78.278
501.316;   56.641;   11.944;   85.278
501.907;  129.581;   52.944;   57.278
502.499;   82.071;   21.944;   92.278
503.090;   46.351;   17.944;   69.278
503.682;   41.631;   13.944;   85.278
504.274;   42.971;   38.944;   68.278
504.865;  105.681;    1.944;   72.278
505.456;  128.511;   35.944;   24.278
506.048;   39.321;   11.944;   72.278
506.639;   43.751;   23.944;   94.278
507.230;   43.501;   18.944;  108.278
507.822;   89.341;   11.944;   84.278
508.413;   58.941;   24.944;   62.278
509.004;  134.841;   32.944;   72.278
509.595;   46.151;    0.944;   85.278
510.187;   36.391;   24.944;   94.278
510.778;   51.021;   16.944;   86.278
511.369;   32.241;  -10.056;   71.278
511.960;   97.981;   13.944;   48.278
512.551;   27.411;   11.944;   70.278
513.142;   43.491;   21.944;   75.278
513.733;   40.731;    3.944;   59.278
514.324;   59.201;   23.944;   63.278
514.915;  111.981;    5.944;   72.278
515.506;   45.401;   40.944;   41.278
516.097;  191.121;   19.944;   75.278
516.687;   92.901;   20.944;   91.278
517.278;   48.831;   14.944;   91.278
517.869;  104.761;   25.944;   82.278
518.460;   61.931;   11.944;   70.278
519.050;   74.081;   36.944;   71.278
519.641;   44.861;    3.944;   61.278
520.231;   44.301;   24.944;   55.278
520.822;   74.491;   25.944;   59.278
521.413;   42.061;   10.944;   75.278
522.003;   75.891;   11.944;   79.278
522.594;  121.421;   22.944;   66.278
523.184;   39.321;   17.944;   71.278
523.774;   63.771;    5.944;   77.278
524.365;   78.361;   24.944;   85.278
524.955;   88.521;   20.944;   73.278
525.546;   43.101;   14.944;   79.278
526.136;   28.161;   17.944;   39.278
526.726;  114.321;   35.944;   84.278
527.316;  101.161;   21.944;   62.278
527.906;   44.961;  -18.056;   80.278
528.497;   40.181;   10.944;   97.278
529.087;   66.471;    5.944;   79.278
529.677;   31.231;    8.944;   60.278
530.267;   57.181;   -0.056;   77.278
530.857;  186.511;   -0.056;   62.278
531.447;   50.441;   26.944;   86.278
532.037;   54.281;   11.944;   79.278
532.627;   48.491;   11.944;   76.278
533.217;   59.521;    6.944;   46.278
533.806;   54.781;   20.944;   39.278
534.396;  114.251;   28.944;   77.278
534.986;   43.761;    6.944;   95.278
535.576;   53.341;   -1.056;   74.278
536.165;  103.371;   30.944;   51.278
536.755;   50.331;   23.944;   69.278
537.345;  180.831;   31.944;   80.278
537.934;   66.191;   16.944;   57.278
538.524;  109.761;   14.944;   61.278
539.114;   55.911;  -15.056;   77.278
539.703;   56.511;   10.944;   50.278
540.293;   57.871;   18.944;  106.278
540.882;   51.031;   25.944;   60.278
541.471;   89.991;   16.944;   74.278
542.061;   56.281;   25.944;   82.278
542.650;  101.581;   28.944;   79.278
543.239;  157.571;  -11.056;   67.278
543.829;   48.851;   43.944;   98.278
544.418;   77.421;   11.944;   89.278
545.007;   90.891;   13.944;   77.278
545.596;   66.211;   17.944;   65.278
546.185;  221.511;   45.944;   75.278
546.775;   47.851;  -17.056;   51.278
547.364;   61.771;   10.944;   82.278
547.953;  106.691;   29.944;   90.278
548.542;   87.631;    3.944;   82.278
549.131;   64.691;   11.944;   89.278
549.720;   79.661;    8.944;   69.278
550.309;   56.141;   12.944;   53.278
550.897;   80.491;   15.944;   85.278
551.486;   68.121;   24.944;   79.278
552.075;   57.571;   18.944;   62.278
552.664;   71.411;   27.944;   84.278
553.253;  162.641;    9.944;   36.278
553.841;   85.871;   20.944;   90.278
554.430;  104.491;   19.944;   91.278
555.019;   89.981;   22.944;   67.278
555.607;  104.261;   12.944;   92.278
556.196;   62.371;   25.944;   86.278
556.784;   66.321;   23.944;   51.278
557.373;  235.291;    6.944;   97.278
557.961;   75.091;    8.944;   65.278
558.550;   74.151;   15.944;   64.278
559.138;   52.781;    7.944;   73.278
559.726;   69.471;  -17.056;   77.278
560.315;  156.831;   22.944;   80.278
560.903;  157.271;   13.944;   70.278
561.491;  136.131;    4.944;   62.278
562.080;   61.471;  -11.056;   60.278
562.668;   90.061;   52.944;   76.278
563.256;   64.101;   22.944;   60.278
563.844;   62.031;    1.944;   75.278
564.432;   52.471;    1.944;   69.278
565.020;  121.361;   19.944;   68.278
565.608;   89.831;    1.944;   66.278
566.196;   90.611;   32.944;   72.278
566.784;   57.931;   -0.056;   59.278
567.372;   78.631;   13.944;   64.278
567.960;   38.651;   -9.056;   36.278
568.548;  186.521;   17.944;   69.278
569.136;   72.751;   15.944;   70.278
569.723;  124.611;   40.944;   79.278
570.311;   76.441;   31.944;   46.278
570.899;  121.391;   12.944;   80.278
571.487;  117.901;   17.944;   76.278
572.074;   73.761;   36.944;   83.278
572.662;  122.631;   -0.056;   55.278
573.249;   90.651;   28.944;   91.278
573.837;  126.121;   31.944;   52.278
574.424;   90.271;   39.944;  104.278
575.012;   90.051;   15.944;   71.278
575.599;  122.541;    4.944;   73.278
576.187;   63.961;   11.944;   69.278
576.774;   63.551;   36.944;   76.278
577.361;  102.661;   28.944;   50.278
577.949;  130.511;   20.944;   75.278
578.536;   67.071;   25.944;   74.278
579.123;   78.651;   32.944;   74.278
579.710;   70.121;    9.944;   92.278
580.298;   64.011;   17.944;   89.278
580.885;   79.231;   15.944;   43.278
581.472;  110.661;   19.944;   97.278
582.059;  118.291;   23.944;   73.278
582.646;  195.871;   31.944;   72.278
583.233;   99.311;   11.944;   64.278
583.820;  113.151;   18.944;   89.278
584.407;  264.861;   24.944;   60.278
584.994;  134.891;   26.944;   74.278
585.580;   90.131;   10.944;   88.278
586.167;  139.021;   20.944;   64.278
586.754;   83.731;   42.944;   80.278
587.341;  124.991;   13.944;   84.278
587.927;   75.391;   50.944;   55.278
588.514;  108.651;   38.944;   42.278
589.101;  206.921;   17.944;   66.278
589.687;   62.371;   30.944;   88.278
590.274;   67.911;   -2.056;   68.278
590.861;   81.081;   30.944;   57.278
591.447;  108.891;   24.944;   81.278
592.033;   96.061;   13.944;   67.278
592.620;   59.861;   20.944;   48.278
593.206;  102.671;   33.944;   88.278
593.793;   94.671;   -5.056;   70.278
594.379;  130.451;   35.944;   70.278
594.965;  108.931;    7.944;   95.278
595.552;   51.811;    5.944;   76.278
596.138;  117.621;   -2.056;   74.278
596.724;   58.571;    0.944;  107.278
597.310;   55.341;   -9.056;  107.278
597.896;   33.851;   20.944;  121.278
598.482;   46.431;   25.944;   94.278
599.068;   87.611;    5.944;  103.278
599.654;   53.791;   -2.056;  133.278
600.240;   48.911;   22.944;  143.278
600.826;   72.481;   -0.056;  152.278
601.412;   50.911;   17.944;  149.278
601.998;   41.641;   -6.056;  133.278
602.584;   37.391;  -10.056;  168.278
603.170;   65.731;   10.944;  177.278
603.755;   65.291;   14.944;  208.278
604.341;   56.071;    3.944;  202.278
604.927;   36.241;    1.944;  224.278
605.512;   35.491;    7.944;  250.278
606.098;   68.331;   20.944;  282.278
606.684;   42.401;   10.944;  270.278
607.269;   45.581;   22.944;  341.278
607.855;   32.831;   27.944;  344.278
608.440;   42.791;   26.944;  381.278
609.026;   15.361;  -16.056;  363.278
609.611;  139.271;   22.944;  455.278
610.196;   41.681;   26.944;  468.278
610.782;   67.441;   -7.056;  588.278
611.367;  115.831;   20.944;  658.278
611.952;   60.541;   30.944;  723.278
612.538;   37.571;    8.944;  739.278
613.123;   44.831;    6.944;  710.278
613.708;   30.181;   19.944;  680.278
614.293;  104.991;   -2.056;  783.278
614.878;   24.661;   38.944;  753.278
615.463;   38.521;   27.944;  835.278
616.048;   46.271;    2.944;  855.278
616.633;   88.061;   18.944;  910.278
617.218;   48.311;    3.944;  861.278
617.803;   66.021;   -1.056;  934.278
618.388;   50.671;   24.944;  997.278
618.973;   76.971;  -17.056; 1047.278
619.557;   11.131;   18.944; 1053.278
620.142;   49.201;   28.944; 1136.278
620.727;   61.511;   22.944; 1177.278
621.312;   45.641;   13.944; 1264.278
621.896;   83.831;   32.944; 1389.278
622.481;   30.511;    4.944; 1464.278
623.066;   47.941;    5.944; 1518.278
623.650;   29.471;   22.944; 1632.278
624.235;   27.111;   -0.056; 1670.278
624.819;   32.211;   13.944; 1824.278
625.404;   49.981;   17.944; 1864.278
625.988;   97.871;   35.944; 2023.278
626.572;   46.331;   16.944; 2040.278
627.157;   47.371;   28.944; 2107.278
627.741;   55.621;   13.944; 2268.278
628.325;   63.691;   41.944; 2364.278
628.909;  105.151;   14.944; 2511.278
629.494;   55.631;   49.944; 2544.278
630.078;   33.601;   17.944; 2665.278
630.662;   38.901;   25.944; 2786.278
631.246;   40.861;    3.944; 2928.278
631.830;   64.191;   20.944; 3065.278
632.414;   41.921;    9.944; 3100.278
632.998;   82.141;   13.944; 3266.278
633.582;   26.071;    9.944; 3373.278
634.166;   41.121;   14.944; 3474.278
634.750;   44.121;    1.944; 3630.278
635.333;   30.511;   43.944; 3818.278
635.917;   50.471;   13.944; 4001.278
636.501;   74.431;   31.944; 4138.278
637.085;   32.871;   18.944; 4169.278
637.668;   45.181;   25.944; 4329.278
638.252;  117.761;    6.944; 4579.278
638.836;   82.511;   37.944; 4810.278
639.419;   35.291;   20.944; 4871.278
640.003;   37.501;   16.944; 5028.278
640.586;   95.641;   19.944; 5304.278
641.170;   88.391;   28.944; 5439.278
641.753;   34.071;  -12.056; 5687.278
642.337;   49.381;   21.944; 5795.278
642.920;  100.861;   17.944; 6126.278
643.503;   39.441;    6.944; 6206.278
644.087;   50.801;   31.944; 6355.278
644.670;   58.081;    8.944; 6523.278
645.253;   34.131;  -14.056; 6733.278
645.836;   30.051;   19.944; 6873.278
646.419;   72.191;   36.944; 7183.278
647.002;   37.931;   22.944; 7389.278
647.585;   48.851;   17.944; 7587.278
648.168;   62.351;  -36.056; 7868.278
648.751;   36.921;   14.944; 7980.278
649.334;   28.741;   -8.056; 8167.278
649.917;   55.291;   12.944; 8404.277
650.500;   60.001;   29.944; 8719.277
651.083;   35.141;   12.944; 8958.277
651.666;   31.651;   10.944; 9076.277
652.249;   48.121;   20.944; 9529.277
652.831;   85.491;   -4.056; 9708.277
653.414;   50.121;   19.944; 9965.277
653.997;   31.771;   45.944;10155.277
654.579;   40.941;   22.944;10472.277
655.162;   54.551;   15.944;10680.277
655.744;   96.901;   28.944;10970.277
656.327;   71.701;   24.944;11138.277
656.909;   43.191;    7.944;11555.277
657.492;   36.331;   36.944;11794.277
658.074;   42.081;   14.944;12108.277
658.657;   70.561;   37.944;12509.277
659.239;   26.581;   21.944;12823.277
659.821;   37.671;   30.944;13199.277
660.404;   46.451;   -0.056;13725.277
660.986;   90.871;   34.944;14164.277
661.568;  135.241;   17.944;14654.277
662.150;   34.701;   23.944;14843.277
662.732;  104.971;   30.944;15379.277
663.314;   45.011;   34.944;15736.277
663.896;   59.071;    2.944;16046.277
664.478;   47.011;   27.944;16199.277
665.060;   66.011;   16.944;16485.277
665.642;   54.461;   42.944;16669.277
666.224;   32.861;   20.944;16366.277
666.806;   48.241;   28.944;16621.277
667.388;   39.461;   12.944;16619.277
667.969;   37.681;   25.944;16858.277
668.551;   82.221;   20.944;17146.277
669.133;   69.171;   11.944;17189.277
669.715;   33.131;   21.944;17236.277
670.296;   47.441;   13.944;17639.277
670.878;   59.371;   11.944;17909.277
671.459;  100.501;   27.944;18161.277
672.041;   39.581;   20.944;18458.277
672.622;   68.841;   17.944;18644.277
673.204;   60.301;    7.944;18975.277
673.785;   39.981;    6.944;19212.277
674.366;   65.881;   10.944;19442.277
674.948;   42.321;   21.944;19617.277
675.529;   16.871;    5.944;19632.277
676.110;   57.001;   26.944;19905.277
676.692;   52.541;   12.944;20350.277
677.273;   34.011;   44.944;20659.277
677.854;   39.711;   23.944;20722.277
678.435;   43.201;   17.944;21128.277
679.016;   72.961;   10.944;21110.277
679.597;   93.901;   29.944;21227.277
680.178;   94.751;   35.944;21581.277
680.759;  205.911;    4.944;21903.277
681.340;    7.251;   25.944;21656.277
681.921;  114.301;   14.944;22157.277
682.502;   79.481;   17.944;22193.277
683.082;   44.871;   24.944;22158.277
683.663;   58.411;   29.944;22283.277
684.244;   48.901;   -0.056;22426.277
684.825;   40.311;   24.944;22446.277
685.405;   46.821;   15.944;22634.277
685.986;   52.171;   29.944;22889.277
686.566;   30.651;   15.944;23001.277
687.147;   68.051;   14.944;22937.277
687.727;   35.351;    7.944;23017.277
688.308;   50.581;   38.944;23035.277
688.888;   80.611;    9.944;23452.277
689.469;   75.651;   32.944;23228.277
690.049;   25.571;    4.944;23460.277
690.629;   32.941;    4.944;23796.277
691.210;   36.531;   24.944;23777.277
691.790;   58.241;   11.944;24070.277
692.370;   37.601;   15.944;23870.277
692.950;   56.941;   31.944;23878.277
693.530;   54.701;   11.944;23838.277
694.110;  135.621;    1.944;24212.277
694.690;   39.701;   20.944;23991.277
695.270;   38.661;   16.944;24205.277
695.850;   53.151;   12.944;24269.277
696.430;   45.461;   18.944;24221.277
697.010;   77.211;   -0.056;24356.277
697.590;   47.431;   21.944;24175.277
698.170;   39.901;   -0.056;24286.277
698.750;   85.001;   31.944;24140.277
699.329;   42.651;    6.944;24472.277
699.909;   27.921;   20.944;24404.277
700.489;   47.611;   31.944;24491.277
701.068;   37.441;   16.944;24509.277
701.648;  145.171;   -1.056;24790.277
702.228;   35.611;   38.944;24574.277
702.807;   24.621;   11.944;24448.277
703.386;   34.401;   36.944;24295.277
703.966;  116.451;   25.944;24346.277
704.545;   69.941;   26.944;23973.277
705.125;   35.591;   22.944;23913.277
705.704;    6.701;  -21.056;23684.277
706.283;   48.951;   33.944;24091.277
706.863;   21.731;   11.944;23905.277
707.442;   65.991;   10.944;23834.277
708.021;   68.611;    6.944;23712.277
708.600;   35.801;   28.944;23454.277
709.179;   34.611;  -12.056;23585.277
709.758;   43.521;   14.944;23370.277
710.337;   30.531;   40.944;23373.277
710.916;   52.971;   16.944;23412.277
711.495;   46.221;   13.944;23067.277
712.074;   31.911;   26.944;22908.277
712.653;   57.831;  -17.056;22685.277
713.232;   73.221;   17.944;22628.277
713.810;   40.361;   23.944;22374.277
714.389;   70.661;   39.944;22425.277
714.968;   40.491;   16.944;22166.277
715.547;   44.171;   26.944;22198.277
716.125;   50.741;  -20.056;21874.277
716.704;   99.211;   18.944;21791.277
717.282;   27.911;   24.944;21274.277
717.861;   50.661;   11.944;21281.277
718.439;   31.361;   14.944;20885.277
719.018;   68.921;   22.944;20729.277
719.596;   41.931;   -3.056;20527.277
720.174;   54.381;   25.944;20505.277
720.753;   66.591;   34.944;20328.277
721.331;   35.481;   18.944;20060.277
721.909;   79.611;   24.944;19704.277
722.487;   52.461;    5.944;19441.277
723.066;   32.861;  -18.056;19032.277
723.644;  317.911;   42.944;19526.277
724.222;   84.331;   14.944;18922.277
724.800;   54.751;   27.944;18662.277
725.378;   47.131;   15.944;18618.277
725.956;   52.971;   13.944;18292.277
726.534;   37.401;   -3.056;18189.277
727.112;   50.881;   36.944;17871.277
727.690;   41.621;    8.944;17589.277
728.267;   46.981;   -3.056;17399.277
728.845;   34.511;   21.944;17120.277
729.423;   34.651;   31.944;16894.277
730.001;   37.531;    3.944;16911.277
730.578;   52.511;   29.944;16912.277
731.156;   33.881;   29.944;16721.277
731.733;   25.541;   11.944;16428.277
732.311;   63.781;   18.944;16229.277
732.888;   28.731;   10.944;15939.277
733.466;   28.741;   -6.056;15650.277
734.043;   40.621;   31.944;15448.277
734.621;   77.421;   24.944;15234.277
735.198;   40.221;   26.944;15122.277
735.775;   30.551;   22.944;14923.277
736.353;   47.191;   -4.056;14801.277
736.930;   34.781;   -1.056;14740.277
737.507;   31.461;   47.944;14249.277
738.084;   60.251;   12.944;14207.277
738.661;   28.771;   22.944;13877.277
739.238;   50.641;   22.944;13744.277
739.815;   26.441;   -9.056;13406.277
740.392;   21.361;  -11.056;13254.277
740.969;  194.371;   33.944;13441.277
741.546;   41.781;   24.944;13160.277
742.123;  131.941;   22.944;13148.277
742.700;   40.501;   18.944;12671.277
743.277;   60.391;   -2.056;12591.277
743.853;   80.241;   23.944;12340.277
744.430;   44.621;   21.944;12116.277
745.007;  110.541;   10.944;12078.277
745.584;   79.041;   22.944;11917.277
746.160;   45.711;   -0.056;11749.277
746.737;   31.931;    8.944;11642.277
747.313;   41.061;   -4.056;11462.277
747.890;   21.191;  -17.056;11279.277
748.466;   31.601;    0.944;11128.277
749.043;   35.781;   14.944;10888.277
749.619;   62.451;   17.944;10813.277
750.195;   48.361;   24.944;10629.277
750.771;   48.051;   -9.056;10441.277
751.348;   26.161;    1.944;10190.277
751.924;   33.091;   24.944;10078.277
752.500;   38.741;   23.944;10010.277
753.076;   49.641;   31.944; 9908.277
753.652;   70.781;   26.944; 9734.277
754.228;   38.611;    7.944; 9637.277
754.804;   60.651;   15.944; 9505.277
755.380;   61.261;   -1.056; 9417.277
755.956;   29.181;   20.944; 9176.277
756.532;   73.751;   20.944; 9047.277
757.108;   33.331;   10.944; 8908.277
757.684;   26.481;   22.944; 8914.277
758.260;   64.611;    4.944; 8790.277
758.835;   26.121;   31.944; 8574.277
759.411;   63.601;   27.944; 8503.277
759.987;   39.351;   24.944; 8376.277
760.562;   39.271;   24.944; 8185.278
761.138;   43.161;    9.944; 8141.278
761.713;   40.531;  -11.056; 8001.278
762.289;   68.131;   14.944; 7909.278
762.864;   93.551;    9.944; 7762.278
763.440;   41.581;   21.944; 7714.278
764.015;   58.461;   25.944; 7552.278
764.590;  193.021;   33.944; 7628.278
765.166;   73.761;  -15.056; 7484.278
765.741;   61.531;   35.944; 7297.278
766.316;   55.261;   15.944; 7255.278
766.891;   69.921;    9.944; 7080.278
767.466;   68.441;   21.944; 7094.278
768.041;   31.971;   21.944; 6856.278
768.616;   43.241;   -5.056; 6738.278
769.191;   48.331;   26.944; 6557.278
769.766;   31.901;   13.944; 6462.278
770.341;   35.551;   23.944; 6313.278
770.916;   88.851;   17.944; 6282.278
771.491;   98.721;   24.944; 6201.278
772.066;   48.111;   -7.056; 6150.278
772.641;   53.231;   37.944; 6089.278
773.215;   48.701;   18.944; 5920.278
773.790;  162.691;   27.944; 5993.278
774.365;   57.191;   -2.056; 5822.278
774.939;   56.911;    7.944; 5803.278
775.514;  128.081;   -2.056; 5664.278
776.088;  103.681;   32.944; 5572.278
776.663;   71.141;   10.944; 5462.278
777.237;  141.321;   17.944; 5489.278
777.812;  156.491;    8.944; 5381.278
778.386;   88.561;   15.944; 5238.278
778.960;   66.391;    3.944; 5188.278
779.535;  117.031;   20.944; 5187.278
780.109;   89.801;    7.944; 5044.278
780.683;   59.701;   11.944; 4924.278
781.257;   85.751;   22.944; 4941.278
781.831;   81.961;   10.944; 4800.278
782.405;  141.521;   -6.056; 4709.278
782.980;   80.581;   40.944; 4632.278
783.554;   62.431;    2.944; 4536.278
784.127;  241.371;    4.944; 4588.278
784.701;  111.911;   30.944; 4512.278
785.275;   52.071;    5.944; 4372.278
785.849;   84.251;   23.944; 4398.278
786.423;  233.571;   18.944; 4344.278
786.997;   91.231;    9.944; 4272.278
787.570;  102.101;   20.944; 4092.278
788.144;  112.841;   23.944; 4066.278
788.718;  194.361;    0.944; 4001.278
789.291;  210.661;   36.944; 4034.278
789.865;   84.351;    5.944; 3826.278
790.438;  307.981;   25.944; 3962.278
791.012;  166.031;   20.944; 3803.278
791.585;  119.381;   19.944; 3718.278
792.159;  151.711;   13.944; 3717.278
792.732;  116.871;   25.944; 3689.278
793.305;  146.081;    5.944; 3563.278
793.879;  184.211;   19.944; 3537.278
794.452;  143.271;   20.944; 3447.278
795.025;  148.431;   35.944; 3414.278
795.598;  140.101;   -4.056; 3358.278
796.171;  207.941;   25.944; 3387.278
796.744;  131.241;   16.944; 3286.278
797.317;  128.461;   35.944; 3259.278
797.890;  174.931;   26.944; 3211.278
798.463;  151.811;    6.944; 3185.278
799.036;  124.111;  -26.056; 3159.278
799.609;  204.711;   21.944; 3147.278
800.182;  145.481;   10.944; 3093.278
800.754;  210.581;   28.944; 3121.278
801.327;  165.961;   32.944; 3034.278
801.900;  129.851;   29.944; 2949.278
802.473;  205.941;   -8.056; 2935.278
803.045;  150.631;   20.944; 2816.278
803.618;  228.561;   33.944; 2902.278
804.190;  141.341;   23.944; 2811.278
804.763;  180.061;   29.944; 2760.278
805.335;  229.371;   28.944; 2797.278
805.908;  176.171;   23.944; 2726.278
806.480;  182.571;   11.944; 2683.278
807.052;  310.811;   32.944; 2673.278
807.625;  389.601;   19.944; 2546.278
808.197;  199.901;   33.944; 2544.278
808.769;  189.701;   40.944; 2527.278
809.341;  221.241;   18.944; 2499.278
809.913;  218.491;   21.944; 2430.278
810.485;  158.741;   10.944; 2411.278
811.057;  264.861;   47.944; 2352.278
811.629;  208.341;   11.944; 2319.278
812.201;  348.751;   30.944; 2399.278
812.773;  232.461;    9.944; 2343.278
813.345;  241.861;   20.944; 2333.278
813.917;  464.681;    8.944; 2358.278
814.489;  265.541;   34.944; 2255.278
815.060;  343.011;   18.944; 2181.278
815.632;  270.781;    9.944; 2193.278
816.204;  538.781;   29.944; 2216.278
816.775;  305.971;    9.944; 2131.278
817.347;  296.181;  -11.056; 2127.278
817.919;  335.241;   48.944; 2104.278
818.490;  428.141;   17.944; 2030.278
819.061;  389.841;   27.944; 2016.278
819.633;  468.571;  -18.056; 2015.278
820.204;  326.461;   29.944; 2043.278
820.776;  403.561;    3.944; 1920.278
821.347;  338.481;   41.944; 1969.278
821.918;  471.391;   20.944; 1918.278
822.489;  525.081;   29.944; 1913.278
823.060;  633.351;   23.944; 1863.278
823.632;  439.071;   12.944; 1812.278
824.203;  411.301;  -20.056; 1782.278
824.774;  451.561;   29.944; 1815.278
825.345;  570.371;   27.944; 1784.278
825.916;  553.991;   22.944; 1745.278
826.487;  559.241;   11.944; 1722.278
827.057;  563.951;   10.944; 1719.278
827.628;  527.581;   23.944; 1723.278
828.199;  690.971;   12.944; 1720.278
828.770;  858.011;    6.944; 1708.278
829.340;  687.491;   18.944; 1685.278
829.911;  522.331;   20.944; 1581.278
830.482;  573.851;   24.944; 1671.278
831.052;  613.041;   17.944; 1590.278
831.623;  647.491;   26.944; 1560.278
832.193;  895.161;   20.944; 1568.278
832.764;  622.231;    5.944; 1510.278
833.334;  600.851;    9.944; 1491.278
833.905;  658.301;   25.944; 1529.278
834.475;  890.501;    8.944; 1522.278
835.045;  651.351;   23.944; 1486.278
835.615;  931.661;   31.944; 1489.278
836.186; 1065.611;   17.944; 1461.278
836.756;  908.851;   15.944; 1356.278
837.326;  815.241;   -8.056; 1367.278
837.896;  793.191;   26.944; 1383.278
838.466; 1042.841;   28.944; 1376.278
839.036; 1014.491;   19.944; 1382.278
839.606; 1046.811;   20.944; 1340.278
840.176;  949.401;   20.944; 1337.278
840.746; 1016.941;  -17.056; 1345.278
841.315; 1142.431;   29.944; 1324.278
841.885; 1167.161;   28.944; 1337.278
842.455; 1425.851;   21.944; 1338.278
843.025; 1752.731;   43.944; 1292.278
843.594; 1328.641;   14.944; 1308.278
844.164; 1314.371;    7.944; 1238.278
844.733; 1333.841;   21.944; 1216.278
845.303; 1587.801;    1.944; 1199.278
845.872; 1299.971;   22.944; 1188.278
846.442; 1283.171;   24.944; 1162.278
847.011; 1403.781;   24.944; 1163.278
847.581; 1531.051;    7.944; 1178.278
848.150; 1420.551;   19.944; 1139.278
848.719; 1850.681;   32.944; 1116.278
849.288; 1547.711;   41.944; 1137.278
849.858; 1923.991;   33.944; 1121.278
850.427; 1687.291;   34.944; 1165.278
850.996; 1844.441;   10.944; 1115.278
851.565; 2374.261;    5.944; 1146.278
852.134; 1910.851;   43.944; 1084.278
852.703; 1892.011;    9.944; 1050.278
853.272; 2096.901;    0.944; 1032.278
853.841; 1895.571;   28.944; 1031.278
854.409; 2037.071;   37.944; 1019.278
854.978; 1962.461;   -5.056;  948.278
855.547; 2047.311;   23.944;  999.278
856.116; 2779.431;   19.944; 1082.278
856.684; 2385.271;   23.944;  967.278
857.253; 2366.341;   15.944;  955.278
857.822; 2338.411;    2.944;  948.278
858.390; 2856.331;   40.944;  969.278
858.959; 2430.101;   -3.056;  937.278
859.527; 3014.371;   32.944;  951.278
860.096; 2883.591;    8.944;  953.278
860.664; 3023.471;   10.944;  874.278
861.232; 3477.411;   17.944;  928.278
861.801; 3230.051;   31.944;  916.278
862.369; 2936.851;  -12.056;  821.278
862.937; 3248.241;   15.944;  858.278
863.505; 3197.661;   42.944;  857.278
864.073; 3428.041;   13.944;  840.278
864.641; 3556.531;    0.944;  834.278
865.209; 3759.141;   18.944;  834.278
865.777; 3461.651;    4.944;  857.278
866.345; 3884.831;   42.944;  828.278
866.913; 4245.471;   29.944;  834.278
867.481; 4520.611;   15.944;  811.278
868.049; 4367.311;   22.944;  783.278
868.617; 4391.411;   27.944;  754.278
869.184; 4392.421;    0.944;  792.278
869.752; 4260.861;    9.944;  743.278
870.320; 4599.951;   40.944;  745.278
870.887; 4732.511;   26.944;  737.278
871.455; 5411.751;    6.944;  713.278
872.022; 5065.331;   15.944;  780.278
872.590; 5056.391;    9.944;  711.278
873.157; 5301.401;   11.944;  712.278
873.725; 5406.611;   12.944;  720.278
874.292; 6098.831;   30.944;  734.278
874.859; 6085.091;   16.944;  712.278
875.426; 6094.601;   31.944;  725.278
875.994; 6141.461;    0.944;  706.278
876.561; 6752.441;   23.944;  654.278
877.128; 6520.641;    2.944;  671.278
877.695; 6413.011;   -2.056;  636.278
878.262; 7549.701;   24.944;  662.278
878.829; 7217.331;    7.944;  705.278
879.396; 8034.201;   10.944;  675.278
879.963; 7746.591;   22.944;  657.278
880.530; 8136.451;   37.944;  632.278
881.097; 8469.091;   23.944;  691.278
881.663; 8978.001;   10.944;  620.278
882.230; 8788.221;   22.944;  651.278
882.797; 9438.471;    2.944;  648.278
883.363; 9182.881;   51.944;  674.278
883.930; 9139.101;   38.944;  621.278
884.497;10117.271;   38.944;  618.278
885.063;10498.411;   30.944;  609.278
885.630;10236.521;   24.944;  642.278
886.196;10739.251;   18.944;  603.278
886.762;11021.051;   38.944;  606.278
887.329;11072.641;   30.944;  639.278
887.895;11403.161;   18.944;  570.278
888.461;12395.241;   31.944;  591.278
889.027;12778.261;   18.944;  589.278
889.594;12619.691;    0.944;  597.278
890.160;13299.161;   32.944;  569.278
890.726;13473.991;   18.944;  567.278
891.292;14103.901;   20.944;  541.278
891.858;14682.521;   14.944;  564.278
892.424;15268.601;   35.944;  528.278
892.990;14710.351;  -12.056;  530.278
893.556;15713.081;   20.944;  539.278
894.121;15680.701;   21.944;  542.278
894.687;16054.421;   18.944;  484.278
895.253;17096.211;   24.944;  540.278
895.819;17295.471;    8.944;  529.278
896.384;17506.211;   25.944;  553.278
896.950;17662.191;   13.944;  505.278
897.515;17336.701;   12.944;  452.278
898.081;19052.071;   11.944;  484.278
898.646;18484.811;   33.944;  446.278
899.212;19671.871;   13.944;  492.278
899.777;20595.551;   15.944;  430.278
900.342;21138.241;  -22.056;  510.278
900.908;21471.421;   24.944;  494.278
901.473;21282.911;   25.944;  477.278
902.038;22098.161;   15.944;  464.278
902.603;22525.771;   22.944;  461.278
903.168;23262.661;   21.944;  461.278
903.734;23438.481;   -2.056;  455.278
904.299;23474.091;   11.944;  334.278
904.864;24157.341;   24.944;  436.278
905.428;24743.281;   38.944;  444.278
905.993;25587.071;   27.944;  400.278
906.558;26035.331;   31.944;  417.278
907.123;26465.501;   -3.056;  437.278
907.688;27287.761;    5.944;  388.278
908.252;28043.481;   36.944;  448.278
908.817;27795.081;   38.944;  418.278
909.382;28595.671;    8.944;  390.278
909.946;28469.541;   29.944;  382.278
910.511;30414.831;   35.944;  398.278
911.075;30708.751;    5.944;  404.278
911.640;30892.661;   16.944;  403.278
912.204;31422.871;   29.944;  389.278
912.769;32416.281;   17.944;  367.278
913.333;33430.501;   28.944;  377.278
913.897;33506.931;   -8.056;  380.278
914.461;34100.971;   11.944;  349.278
915.026;34327.441;    3.944;  372.278
915.590;35469.681;   29.944;  399.278
916.154;35961.571;   23.944;  388.278
916.718;36644.451;   -3.056;  340.278
917.282;37799.931;    8.944;  362.278
917.846;38548.031;   10.944;  348.278
918.410;38652.631;   21.944;  353.278
918.974;40035.001;    2.944;  378.278
919.537;39563.991;   23.944;  366.278
920.101;41967.921;   19.944;  323.278
920.665;42525.361;   14.944;  390.278
921.229;43398.991;   35.944;  364.278
921.792;43874.141;   44.944;  377.278
922.356;44657.291;   24.944;  341.278
922.919;46023.001;    8.944;  331.278
923.483;47218.211;   24.944;  325.278
924.046;46639.011;  -19.056;  362.278
924.610;47852.311;   23.944;  352.278
925.173;48893.461;   25.944;  376.278
925.737;49608.971;   13.944;  353.278
926.300;49458.751;    3.944;  326.278
926.863;50136.501;   27.944;  341.278
927.426;52241.471;    2.944;  306.278
927.989;52957.101;   35.944;  332.278
928.553;54294.491;   17.944;  310.278
929.116;55034.821;   10.944;  343.278
929.679;54809.021;   12.944;  334.278
930.242;55586.631;   16.944;  327.278
930.805;56162.131;    4.944;  306.278
931.367;57620.521;   27.944;  307.278
931.930;57664.831;   36.944;  297.278
932.493;58663.281;   23.944;  297.278
933.056;59103.031;   29.944;  299.278
933.619;58627.091;   25.944;  309.278
934.181;59429.791;   14.944;  285.278
934.744;58709.981;   47.944;  296.278
935.306;57964.441;   26.944;  260.278
935.869;57172.881;    9.944;  291.278
936.431;56359.971;   33.944;  268.278
936.994;55959.101;   50.944;  280.278
937.556;54541.101;   24.944;  274.278
938.119;53953.511;   40.944;  232.278
938.681;52861.111;   65.944;  261.278
939.243;50109.431;   15.944;  222.278
939.805;50578.711;   18.944;  212.278
940.368;49779.861;   17.944;  181.278
940.930;48114.981;   19.944;  224.278
941.492;47024.821;   13.944;  198.278
942.054;46804.191;   18.944;  209.278
942.616;47028.151;   28.944;  206.278
943.178;46185.961;   39.944;  210.278
943.740;45721.091;   -5.056;  158.278
944.301;46421.671;    5.944;  205.278
944.863;46522.941;   -5.056;  196.278
945.425;47962.881;   23.944;  207.278
945.987;48018.351;    4.944;  199.278
946.548;48892.621;   28.944;  195.278
947.110;49260.801;   27.944;  188.278
947.672;50218.661;   22.944;  202.278
948.233;50805.801;   18.944;  209.278
948.795;50966.261;   -0.056;  195.278
949.356;52976.191;    5.944;  171.278
949.917;52382.791;   20.944;  178.278
950.479;53512.811;   20.944;  187.278
951.040;54185.681;   14.944;  198.278
951.601;55224.341;   30.944;  179.278
952.163;53999.471;   -8.056;  175.278
952.724;54069.401;   33.944;  199.278
953.285;55568.561;   25.944;  181.278
953.846;53994.621;   10.944;  213.278
954.407;54700.001;    2.944;  231.278
954.968;52496.861;   22.944;  181.278
955.529;52607.791;  -12.056;  207.278
956.090;53152.651;   13.944;  196.278
956.651;54157.031;   16.944;  192.278
957.211;52991.171;   -7.056;  165.278
957.772;51434.521;   12.944;  182.278
958.333;50932.711;   20.944;  189.278
958.894;50970.671;   15.944;  212.278
959.454;48997.251;   25.944;  208.278
960.015;48351.501;   19.944;  198.278
960.575;46861.151;   11.944;  217.278
961.136;45466.471;    5.944;  212.278
961.696;43595.101;   22.944;  182.278
962.257;43488.201;   15.944;  224.278
962.817;41510.161;   18.944;  183.278
963.377;39616.201;   22.944;  210.278
963.938;38653.761;    7.944;  174.278
964.498;37830.411;   14.944;  175.278
965.058;36358.071;   10.944;  210.278
965.618;34177.611;   -9.056;  205.278
966.178;33296.261;   36.944;  181.278
966.738;32312.491;   22.944;  203.278
967.298;29849.311;   22.944;  207.278
967.858;28486.301;    8.944;  177.278
968.418;26921.041;   14.944;  164.278
968.978;25956.781;    7.944;  190.278
969.538;25473.891;   18.944;  181.278
970.097;24005.881;    0.944;  189.278
970.657;22293.251;   21.944;  178.278
971.217;21196.591;   26.944;  174.278
971.776;20058.381;   24.944;  173.278
972.336;18462.001;    2.944;  188.278
972.895;17425.031;   17.944;  186.278
973.455;15568.311;    1.944;  143.278
974.014;15612.051;   16.944;  191.278
974.574;14669.541;   25.944;  174.278
975.133;13007.301;   10.944;  152.278
975.692;13091.131;    5.944;  179.278
976.252;10914.111;   41.944;  189.278
976.811;11113.541;   29.944;  147.278
977.370; 9844.921;    9.944;  175.278
977.929; 9721.981;   36.944;  140.278
978.488; 8894.621;   19.944;  165.278
979.047; 7898.311;   13.944;  166.278
979.606; 7456.591;   29.944;  145.278
980.165; 7010.451;   13.944;  167.278
980.724; 6511.681;   21.944;  168.278
981.283; 6302.341;   12.944;  110.278
981.841; 5891.981;   23.944;  163.278
982.400; 5237.791;  -12.056;  158.278
982.959; 5360.161;   31.944;  167.278
983.517; 4940.271;    5.944;  148.278
984.076; 4511.791;   21.944;  135.278
984.635; 3965.361;   14.944;  129.278
985.193; 3518.291;   26.944;  147.278
985.752; 3331.161;   24.944;  145.278
986.310; 3516.581;  -16.056;  136.278
986.868; 3148.361;   25.944;  163.278
987.427; 2769.501;   26.944;  112.278
987.985; 2700.871;   32.944;  135.278
988.543; 2272.841;   13.944;  124.278
989.101; 2226.371;   10.944;  128.278
989.659; 2129.021;  -18.056;  143.278
990.217; 1834.941;   12.944;  150.278
990.775; 1890.591;   43.944;  145.278
991.333; 1687.361;   -2.056;   86.278
991.891; 1754.041;    0.944;  110.278
992.449; 1745.261;   23.944;  125.278
993.007; 1209.301;   17.944;  121.278
993.565; 1412.301;   12.944;  140.278
994.123; 1429.881;   23.944;  143.278
994.680; 1208.981;   15.944;  113.278
995.238; 1144.831;   18.944;  134.278
995.796; 1090.481;   23.944;  136.278
996.353; 1021.071;   15.944;  142.278
996.911; 1352.771;   20.944;  137.278
997.468; 1262.551;   10.944;  112.278
998.026;  988.541;   16.944;  109.278
998.583;  857.391;   16.944;  102.278
999.140;  650.821;   22.944;  131.278
999.698;  827.691;   23.944;  130.278
1000.255; 1005.801;   10.944;  136.278
1000.812;  841.531;   13.944;  116.278
1001.369;  626.381;   21.944;  119.278
1001.926;  751.221;   12.944;  127.278
1002.483;  756.251;   20.944;  149.278
1003.040;  615.491;   28.944;  126.278
1003.597;  623.571;    1.944;  130.278
1004.154;  492.531;   49.944;  127.278
1004.711;  567.441;    9.944;  127.278
1005.268;  453.511;    9.944;   84.278
1005.825;  891.771;   37.944;  109.278
1006.381;  442.931;   29.944;  121.278
1006.938;  430.691;  -12.056;   87.278
1007.495;  380.121;   27.944;  121.278
1008.051;  387.871;   29.944;  108.278
1008.608;  357.541;   21.944;   96.278
1009.164;  381.291;   35.944;  112.278
1009.721;  244.201;   28.944;   99.278
1010.277;  328.921;   18.944;  128.278
1010.833;  361.451;   29.944;  100.278
1011.390;  278.961;    9.944;  124.278
1011.946;  333.561;   22.944;  104.278
1012.502;  287.721;   39.944;  117.278
1013.058;  308.181;   10.944;  112.278
1013.614;  278.101;   27.944;   94.278
1014.170;  240.151;   11.944;   84.278
1014.726;  353.551;    4.944;  110.278
1015.282;  303.221;   28.944;  102.278
1015.838;  256.681;   20.944;  106.278
1016.394;  271.251;    8.944;  121.278
1016.950;  216.741;   24.944;  110.278
1017.506;  196.651;   13.944;  113.278
1018.062;  171.991;   17.944;   97.278
1018.617;  165.181;    9.944;   89.278
1019.173;  145.791;   43.944;  112.278
1019.728;  189.941;   11.944;   91.278
1020.284;  336.831;   17.944;   98.278
1020.839;  175.621;   19.944;   88.278
1021.395;  173.841;   13.944;   94.278
1021.950;  160.181;    4.944;   76.278
1022.506;  208.551;    6.944;  119.278
1023.061;  346.951;   23.944;   91.278
1023.616;  143.711;   24.944;   80.278
1024.171;  200.771;    9.944;   99.278
1024.727;  149.161;   -0.056;  102.278
1025.282;  126.191;   34.944;   71.278
1025.837;   62.271;   12.944;   73.278
1026.392;   98.461;   13.944;   46.278
1026.947;  161.661;   27.944;   89.278
1027.502;  167.711;   10.944;   63.278
1028.056;  118.021;   18.944;   77.278
1028.611;  107.331;   25.944;   72.278
1029.166;  167.071;   17.944;   79.278
1029.721;  137.621;   24.944;   68.278
1030.275;  210.131;   12.944;   99.278
1030.830;  126.491;   -3.056;   84.278
1031.385;  198.911;   35.944;   74.278
1031.939;  133.961;   15.944;   65.278
1032.494;  202.641;    1.944;   68.278
1033.048;  112.001;   21.944;   95.278
1033.602;   93.391;   19.944;   62.278
1034.157;   94.901;    0.944;   65.278
1034.711;  117.661;   36.944;   56.278
1035.265;   73.241;   19.944;   70.278
1035.820;  118.801;    9.944;   75.278
1036.374;   95.151;   10.944;   87.278
1036.928;   46.621;   -2.056;   50.278
1037.482;   97.391;   11.944;   76.278
1038.036;  130.511;   16.944;   97.278
1038.590;  121.751;   31.944;   31.278
1039.144;   82.581;   20.944;   69.278
1039.698;   76.991;   31.944;   89.278
1040.251;   98.371;   10.944;   60.278
1040.805;   64.261;   -8.056;   70.278
1041.359;  158.031;    6.944;   71.278
1041.913;  134.211;   39.944;   66.278
1042.466;   89.711;   20.944;   64.278
1043.020;   83.091;   20.944;   68.278
1043.573;  160.181;   30.944;   61.278
1044.127;   77.401;   34.944;   65.278
1044.680;   75.721;   -3.056;   71.278
1045.234;   53.561;   27.944;   66.278
1045.787;  103.401;   25.944;   52.278
1046.340;   73.851;   24.944;   66.278
1046.893;   63.251;   12.944;   52.278
1047.447;  452.481;   37.944;   87.278
1048.000;   82.831;   24.944;   73.278
1048.553;   61.341;   39.944;   72.278
1049.106;  145.031;   39.944;   59.278
1049.659;   78.581;   51.944;   72.278
1050.212;  101.951;   31.944;   81.278
1050.765;   58.501;   23.944;   58.278
1051.317;   85.641;   10.944;   66.278
1051.870;   76.791;    6.944;   43.278
1052.423;   67.991;   32.944;   36.278
1052.976;   85.691;   10.944;   60.278
1053.528;   87.571;   20.944;   57.278
1054.081;  137.651;   28.944;   77.278
1054.634;   66.061;   10.944;   53.278
1055.186;   61.951;   -0.056;   68.278
1055.738;   46.961;   28.944;   40.278
1056.291;   59.321;   31.944;   54.278
1056.843;   46.081;   37.944;   60.278
1057.396;   55.451;    4.944;   56.278
1057.948;   99.831;   18.944;   58.278
1058.500;   76.301;    1.944;   58.278
1059.052;  114.641;   18.944;   53.278
1059.604;   87.351;   37.944;   64.278
1060.156;   55.851;   33.944;   80.278
1060.708;   40.561;   38.944;   79.278
1061.260;   72.441;   23.944;   59.278
1061.812;   52.281;   10.944;   26.278
1062.364;   63.661;   21.944;   66.278
1062.916;   43.641;   49.944;   38.278
1063.468;   52.791;   24.944;   57.278
1064.019;   56.891;   36.944;   65.278
1064.571;   74.921;   34.944;   81.278
1065.123;  234.161;    9.944;   53.278
1065.674;   47.451;   23.944;   57.278
1066.226;   77.951;   29.944;   58.278
1066.777;   45.721;   13.944;   62.278
1067.329;   47.351;   18.944;   58.278
1067.880;   38.481;   13.944;   58.278
1068.431;   91.351;  -11.056;   52.278
1068.983;   57.121;   19.944;   63.278
1069.534;   18.641;  -10.056;   11.278
1070.085;   44.881;   32.944;   51.278
1070.636;   42.571;   29.944;   53.278
1071.187;   34.141;    3.944;   38.278
1071.738;   35.711;  -13.056;   41.278
1072.289;   48.301;   29.944;   61.278
1072.840;  104.311;   -2.056;   45.278
1073.391;   78.901;   23.944;   44.278
1073.942;   48.841;   50.944;  109.278
1074.493;   51.691;   34.944;   50.278
1075.044;   89.751;   -0.056;   70.278
1075.594;   34.121;   35.944;   44.278
1076.145;   40.501;   16.944;   20.278
1076.696;   36.351;   14.944;   56.278
1077.246;   31.561;   24.944;   35.278
1077.797;   46.491;   -9.056;    3.278
1078.347;   34.501;    2.944;   32.278
1078.897;   44.911;   37.944;   48.278
1079.448;   63.431;    4.944;   36.278
1079.998;   42.181;   25.944;   63.278
1080.548;   77.901;   28.944;   29.278
1081.099;   51.021;   20.944;   38.278
1081.649;   37.351;    9.944;   54.278
1082.199;   35.001;   41.944;   52.278
1082.749;   37.021;   11.944;   29.278
1083.299;   37.631;   23.944;   58.278
1083.849;   43.361;    7.944;   37.278
1084.399;   44.521;   29.944;   67.278
1084.949;   33.561;  -24.056;   40.278
1085.498;   55.581;   44.944;   50.278
1086.048;   80.451;   14.944;   51.278
1086.598;   26.491;    6.944;   36.278
1087.147;   64.081;   13.944;   49.278
1087.697;   52.491;   20.944;   46.278
1088.247;   45.581;  -16.056;   45.278
1088.796;   16.191;    4.944;   13.278
1089.346;   36.131;   26.944;   56.278
1089.895;   85.901;   23.944;   64.278
1090.444;   86.601;   29.944;   39.278
1090.994;   31.561;   40.944;   44.278
1091.543;   34.171;   11.944;   40.278
1092.092;   18.211;  -13.056;   16.278
1092.641;   66.741;   12.944;   70.278
1093.190;   41.661;   13.944;   37.278
1093.739;   39.301;    9.944;   42.278
1094.288;   66.571;   32.944;   54.278
1094.837;   53.651;   10.944;   52.278
1095.386;   53.011;   15.944;   31.278
1095.935;   36.371;   35.944;   38.278
1096.484;   61.491;   31.944;   29.278
1097.033;   27.981;   21.944;   29.278
1097.581;   51.711;   42.944;   44.278
1098.130;   83.181;   22.944;   47.278
1098.679;   56.621;   20.944;   43.278
1099.227;   35.411;   16.944;   52.278
1099.776;   52.711;   31.944;   38.278
1100.324;   38.001;   20.944;   46.278

